{"request_info": {"success": true, "credits_used": 24, "credits_remaining": 76, "credits_used_this_request": 1}, "search_parameters": {"q": "How to bathe a horse for the first time", "engine": "google", "google_domain": "google.com"}, "search_metadata": {"created_at": "2024-12-07T08:09:38.415Z", "processed_at": "2024-12-07T08:09:45.664Z", "total_time_taken": 7.25, "engine_url": "https://www.google.com/search?q=How+to+bathe+a+horse+for+the+first+time", "html_url": "https://api.serpwow.com/live/search?api_key=7B8A01FF4547497FA11B152D4400B2F9&q=How+to+bathe+a+horse+for+the+first+time&engine=google&google_domain=google.com&output=html", "json_url": "https://api.serpwow.com/live/search?api_key=7B8A01FF4547497FA11B152D4400B2F9&q=How+to+bathe+a+horse+for+the+first+time&engine=google&google_domain=google.com&output=json"}, "organic_results": [{"position": 1, "block_position": 4, "title": "How to bath a horse correctly: a step-by-step guide", "link": "https://www.horseandhound.co.uk/features/how-to-bath-a-horse-step-by-step-guide-58263", "domain": "www.horseandhound.co.uk", "displayed_link": "https://www.horseandhound.co.uk \u203a Features", "snippet": "Jan 12, 2022 \u2014 Wash the mane as you would the rest of the body, wetting it first and then applying shampoo with a sponge. If it is knotted, use detangler.", "prerender": false, "date": "Jan 12, 2022", "date_utc": "2022-01-12T00:00:00.000Z"}, {"position": 2, "block_position": 5, "title": "How to Bathe Your Horse", "link": "https://www.farnam.com/stable-talk/how-to-bathe-your-horse", "domain": "www.farnam.com", "displayed_link": "https://www.farnam.com \u203a Stable Talk", "snippet": "Oct 26, 2023 \u2014 It's a good plan to begin by wetting his hooves and legs, then gently work your way up to his body as he gets used to the feeling of the water.", "prerender": false, "date": "Oct 26, 2023", "date_utc": "2023-10-26T00:00:00.000Z"}, {"position": 3, "block_position": 6, "title": "How to Bathe a Horse: 13 Steps (with Pictures)", "link": "https://www.wikihow.com/Bathe-a-Horse", "domain": "www.wikihow.com", "displayed_link": "https://www.wikihow.com \u203a ... \u203a Horse Grooming", "snippet": "If you need to bathe a horse, start by wiping its face with a wet sponge or rag. However, be careful not to squeeze water into its eyes, as that would probably ...", "prerender": false}, {"position": 4, "block_position": 7, "title": "Baby's First Bath: Introducing Your Young Horse to Bath Time", "link": "https://www.smartpakequine.com/blog/introducing-your-young-horse-to-bath-time?srsltid=AfmBOoohfOVGVTDLxoXAjFVHFWDwYMB4bj6ILzK-2Eur_AcalJ6eYj0K", "domain": "www.smartpakequine.com", "displayed_link": "https://www.smartpakequine.com \u203a blog \u203a introducing-...", "snippet": "Jul 31, 2023 \u2014 My favorite sponge to use with young horses is the Half Moon Body Sponge. It's a big sponge that holds a significant amount of water.", "prerender": false, "date": "Jul 31, 2023", "date_utc": "2023-07-31T00:00:00.000Z"}, {"position": 5, "block_position": 9, "title": "How to Give a Horse a Bath", "link": "https://vetericyn.com/blog/how-to-give-a-horse-a-bath/?srsltid=AfmBOoquLAC98Ow4wL3bZFlx0GXxwBPnlyt7r7JZGIOeO8FdSBXSdIpr", "domain": "vetericyn.com", "displayed_link": "https://vetericyn.com \u203a blog \u203a how-to-give-a-horse-a-b...", "snippet": "Mar 30, 2021 \u2014 To rinse your horse, start at the hooves and work gently upward and outward. Don't forget to soak the underside, between the legs, and the mane ...", "prerender": false, "sitelinks": {"inline": [{"title": "Prepare Your Station", "link": "https://vetericyn.com/blog/how-to-give-a-horse-a-bath/#:~:text=Prepare%20Your%20Station"}, {"title": "Brushing And A Pre-Wash", "link": "https://vetericyn.com/blog/how-to-give-a-horse-a-bath/#:~:text=Brushing%20and%20a%20Pre%2DWash"}, {"title": "Scrubbing Your Steed", "link": "https://vetericyn.com/blog/how-to-give-a-horse-a-bath/#:~:text=Scrubbing%20Your%20Steed"}]}, "rich_snippet": {"top": {"detected_extensions": {}, "extensions": ["\u200ePrepare Your Station", "\u200eBrushing And A Pre-Wash", "\u200eScrubbing Your Steed"]}}, "date": "Mar 30, 2021", "date_utc": "2021-03-30T00:00:00.000Z"}, {"position": 6, "block_position": 10, "title": "How To Bathe Your Horse: The Ultimate Guide", "link": "https://mynewhorse.equusmagazine.com/2023/08/10/how-to-bathe-your-horse-the-ultimate-guide/", "domain": "mynewhorse.equusmagazine.com", "displayed_link": "https://mynewhorse.equusmagazine.com \u203a Blog", "snippet": "Aug 10, 2023 \u2014 Gather your supplies. \u00b7 A rubber mitt or curry comb \u00b7 Shampoo \u00b7 Bluing shampoo (if your horse has white markings) \u00b7 Mane and tail conditioner \u00b7 Coat ...", "prerender": false, "sitelinks": {"inline": [{"title": "Apply Shampoo", "link": "https://mynewhorse.equusmagazine.com/2023/08/10/how-to-bathe-your-horse-the-ultimate-guide/#:~:text=Apply%20shampoo."}, {"title": "Wash Your Horse's Face", "link": "https://mynewhorse.equusmagazine.com/2023/08/10/how-to-bathe-your-horse-the-ultimate-guide/#:~:text=Wash%20your%20horse%27s%20face."}, {"title": "Detangle And Comb Manes And...", "link": "https://mynewhorse.equusmagazine.com/2023/08/10/how-to-bathe-your-horse-the-ultimate-guide/#:~:text=Detangle%20and%20comb%20manes%20and%20tails."}]}, "rich_snippet": {"top": {"detected_extensions": {}, "extensions": ["\u200eApply Shampoo", "\u200eWash Your Horse's Face", "\u200eDetangle And Comb Manes And..."]}}, "date": "Aug 10, 2023", "date_utc": "2023-08-10T00:00:00.000Z"}], "search_refinement": {"items": [{"title": "Youtube", "link": "https://www.google.com/search?sca_esv=7933640830a9b7d9&q=How+to+bathe+a+horse+for+the+first+time+youtube&uds=ADvngMjcH0KdF7qGWtwTBrP0nt7dDc_5NA7qY2fZuHB3L7PyFRmi7ZYl2C44PNHrfgOJTfWyDT0VX_zR-75n08W4vpplejkR90c4gyYR2AH40R9cEYeXDfKyL2az5jObn_pkIMYMhKVNnvqbMLVbjHh6jaC32ZqTbXKn1Sf19U8hj81m9PI8vYlcNcPUNoZe4ho4exLO6r02&sa=X&ved=2ahUKEwiU7oO7mpWKAxUo4ckDHWtNGKkQxKsJegQIFxAB&ictx=0", "block_position": 1}, {"title": "At home", "link": "https://www.google.com/search?sca_esv=7933640830a9b7d9&q=How+to+bathe+a+horse+for+the+first+time+at+home&uds=ADvngMjcH0KdF7qGWtwTBrP0nt7dDc_5NA7qY2fZuHB3L7PyFRmi7ZYl2C44PNHrfgOJTfWyDT0VX_zR-75n08W4vpplWpqrmmZO2gHjDVNOghzZlReXxIfDHIsFnzk0BsOG7pjL1E_cM3WZqWqE0zdBht649tNeyXTy2oHWsonPEaMFnVlrzwYCCvfN5tZWkhIPm6VU5nO4&sa=X&ved=2ahUKEwiU7oO7mpWKAxUo4ckDHWtNGKkQxKsJegQIFRAB&ictx=0", "block_position": 1}, {"title": "Without", "link": "https://www.google.com/search?sca_esv=7933640830a9b7d9&q=How+to+bathe+a+horse+for+the+first+time+without&uds=ADvngMjcH0KdF7qGWtwTBrP0nt7dDc_5NA7qY2fZuHB3L7PyFRmi7ZYl2C44PNHrfgOJTfWyDT0VX_zR-75n08W4vppl1QqoBsvCivZlhOdMUCnMGHLJIyNHARjyONLXI0PDliiHUxOlcXXOvTsDlS0jXoOEg8z_M5bqigSBIHQ_qP8-JcxuBOClW64cbVS4Lr2oP8N--A66&sa=X&ved=2ahUKEwiU7oO7mpWKAxUo4ckDHWtNGKkQxKsJegQIFBAB&ictx=0", "block_position": 1}]}, "related_searches": [{"query": "How to bathe a horse for the first time at home", "link": "https://www.google.com/search?sca_esv=7933640830a9b7d9&q=How+to+bathe+a+horse+for+the+first+time+at+home&sa=X&ved=2ahUKEwiU7oO7mpWKAxUo4ckDHWtNGKkQ1QJ6BAhLEAE", "block_position": 12}, {"query": "How to bathe a horse for the first time without", "link": "https://www.google.com/search?sca_esv=7933640830a9b7d9&q=How+to+bathe+a+horse+for+the+first+time+without&sa=X&ved=2ahUKEwiU7oO7mpWKAxUo4ckDHWtNGKkQ1QJ6BAhIEAE", "block_position": 12}, {"query": "How to bathe a horse for the first time youtube", "link": "https://www.google.com/search?sca_esv=7933640830a9b7d9&q=How+to+bathe+a+horse+for+the+first+time+youtube&sa=X&ved=2ahUKEwiU7oO7mpWKAxUo4ckDHWtNGKkQ1QJ6BAhBEAE", "block_position": 12}, {"query": "How to wash a horse without a hose", "link": "https://www.google.com/search?sca_esv=7933640830a9b7d9&q=How+to+wash+a+horse+without+a+hose&sa=X&ved=2ahUKEwiU7oO7mpWKAxUo4ckDHWtNGKkQ1QJ6BAg7EAE", "block_position": 12}, {"query": "Horse Bathing Kit", "link": "https://www.google.com/search?sca_esv=7933640830a9b7d9&q=Horse+Bathing+Kit&sa=X&ved=2ahUKEwiU7oO7mpWKAxUo4ckDHWtNGKkQ1QJ6BAg6EAE", "block_position": 12}, {"query": "Is it ok to wash a horse with cold water", "link": "https://www.google.com/search?sca_esv=7933640830a9b7d9&q=Is+it+ok+to+wash+a+horse+with+cold+water&sa=X&ved=2ahUKEwiU7oO7mpWKAxUo4ckDHWtNGKkQ1QJ6BAg4EAE", "block_position": 12}, {"query": "How to wash a horses mane", "link": "https://www.google.com/search?sca_esv=7933640830a9b7d9&q=How+to+wash+a+horses+mane&sa=X&ved=2ahUKEwiU7oO7mpWKAxUo4ckDHWtNGKkQ1QJ6BAg2EAE", "block_position": 12}, {"query": "Horse bath meaning", "link": "https://www.google.com/search?sca_esv=7933640830a9b7d9&q=Horse+bath+meaning&sa=X&ved=2ahUKEwiU7oO7mpWKAxUo4ckDHWtNGKkQ1QJ6BAgxEAE", "block_position": 12}], "related_questions": [{"question": "What is the best thing to wash a horse with?", "answer": "DO: Use a gentle soap. If you want to be fancy: I like Corona shampoo or Effol Shampoo. They gently wash away dirt / grease without drying the hair & they both rinse easily. If you need to be economical: Dawn dish soap does the same thing... washes away dirt / grease without taking the moisture out of the hair.", "source": {"link": "http://www.kentuckyequestrian.com/main.cfm?action=articles&sub=view&ID=1147", "displayed_link": "http://www.kentuckyequestrian.com \u203a ...", "title": "Kentucky Equestrian Articles"}, "block_position": 3}, {"question": "How to introduce a horse to bath?", "answer": "Remember to start desensitizing the horse to water in the airspace around him first. Then start spraying it on his topline: withers and back, hindquarters and neck. Then introduce the water to the horse's back legs and then his front legs. And finally, turn the water pressure down and introduce the water to his face.", "source": {"link": "https://downunderhorsemanship.com/bundys-first-bath/#:~:text=Remember%20to%20start%20desensitizing%20the,the%20water%20to%20his%20face.", "displayed_link": "https://downunderhorsemanship.com \u203a bundys-first-bath", "title": "Bundy's First Bath - Downunder Horsemanship"}, "block_position": 3}, {"question": "How long does it take for a horse to dry after a bath?", "answer": "If your horse is clipped, the drying process may be relatively fast; if he has a full winter coat, it can take several hours for him to fully dry.", "source": {"link": "https://www.smartpakequine.com/learn-products/cold-weather-bathing#:~:text=If%20your%20horse%20is%20clipped,for%20him%20to%20fully%20dry.", "displayed_link": "https://www.smartpakequine.com \u203a learn-products \u203a cold...", "title": "Cold Weather Bathing Best Practices for Horses in Winter"}, "block_position": 3}, {"question": "What do you put on a horse after a bath?", "answer": "After a bath is a good time to apply mane and tail detangler and comb your horse's locks. Use a wide-tooth comb or brush, start from the bottom, and work up to avoid accidentally pulling out or breaking hairs.", "source": {"link": "https://mynewhorse.equusmagazine.com/2023/08/10/how-to-bathe-your-horse-the-ultimate-guide/#:~:text=After%20a%20bath%20is%20a,pulling%20out%20or%20breaking%20hairs.", "displayed_link": "https://mynewhorse.equusmagazine.com \u203a Blog", "title": "How To Bathe Your Horse: The Ultimate Guide"}, "block_position": 3}], "discussions_and_forums": [{"discussion_title": "Bathing a horseBathing a horse", "link": "https://www.reddit.com/r/Horses/comments/ty4am3/bathing_a_horse/", "source": {"source_title": "Reddit\u00a0\u00b7\u00a0Reddit\u00a0\u00b7\u00a0", "domain": "www.reddit.com", "time": "r/Horses&nbsp;\u00b7&nbsp;20+ comments&nbsp;\u00b7&nbsp;2 years agor/Horses&nbsp;\u00b7&nbsp;20+ comments&nbsp;\u00b7&nbsp;2 years ago"}, "block_position": 8}, {"discussion_title": "Tips on giving my horse a bath.Tips on giving my horse a bath.", "link": "https://www.horseforum.com/threads/tips-on-giving-my-horse-a-bath.803755/", "source": {"source_title": "The Horse Forum\u00a0\u00b7\u00a0The Horse Forum\u00a0\u00b7\u00a0", "domain": "www.horseforum.com", "time": "5 years ago5 years ago"}, "block_position": 8}, {"discussion_title": "What is the best method for introducing a horse to bathing or being rinsed ...What is the best method for introducing a horse to bathing or being rinsed ...", "link": "https://www.quora.com/What-is-the-best-method-for-introducing-a-horse-to-bathing-or-being-rinsed-off-with-a-hose", "source": {"source_title": "Quora\u00a0\u00b7\u00a0Quora\u00a0\u00b7\u00a0", "domain": "www.quora.com", "time": "1 answer&nbsp;\u00b7&nbsp;5 years ago1 answer&nbsp;\u00b7&nbsp;5 years ago"}, "block_position": 8}], "inline_videos": [{"position": 1, "title": "How to Bathe a Horse (Step-By-Step Guide)", "length": "12.45", "source": "YouTube \u00b7 Carmella Abel - Equine Helper", "date": "Sep 7, 2020", "date_utc": "2020-09-07T00:00:00.000Z", "link": "https://www.youtube.com/watch?v=DU_0a89KwHw", "block_position": 2}, {"position": 2, "title": "How To Wash A Horse For Beginners! (Only 7 Steps)", "length": "4.09", "source": "YouTube \u00b7 Horse Perfect", "date": "Jul 19, 2022", "date_utc": "2022-07-19T00:00:00.000Z", "link": "https://www.youtube.com/watch?v=fTxY0b4LcDM", "block_position": 2}, {"position": 3, "title": "How to wash a horse for the first time", "length": "7.48", "source": "YouTube \u00b7 Basic Horse Training", "date": "Jun 3, 2016", "date_utc": "2016-06-03T00:00:00.000Z", "link": "https://www.youtube.com/watch?v=WAzdiE9yu58", "block_position": 2}, {"position": 4, "title": "Ken McNabb: Bathing Bonanza | How to Wash a Scared Horse", "length": "22.49", "source": "YouTube \u00b7 Ken McNabb", "date": "Apr 9, 2020", "date_utc": "2020-04-09T00:00:00.000Z", "link": "https://www.youtube.com/watch?v=MTdHsYLnimU", "block_position": 2}], "inline_images": [{"title": "How to Bathe Your Horse", "image": "data:image/gif;base64,R0lGODlhAQABAIAAAP///////yH5BAEKAAEALAAAAAABAAEAAAICTAEAOw==", "link": "https://www.farnam.com/stable-talk/how-to-bathe-your-horse", "block_position": 11}, {"title": "Ken McNabb: Bathing Bonanza | How to Wash a Scared Horse", "image": "data:image/gif;base64,R0lGODlhAQABAIAAAP///////yH5BAEKAAEALAAAAAABAAEAAAICTAEAOw==", "link": "https://www.youtube.com/watch?v=MTdHsYLnimU", "block_position": 11}, {"title": "How to wash a horse for the first time", "image": "data:image/gif;base64,R0lGODlhAQABAIAAAP///////yH5BAEKAAEALAAAAAABAAEAAAICTAEAOw==", "link": "https://www.youtube.com/watch?v=WAzdiE9yu58", "block_position": 11}], "search_information": {"original_query_yields_zero_results": false, "total_results": 1750000}, "pagination": {"current": 12345678910, "next": "https://www.google.com/search?q=How+to+bathe+a+horse+for+the+first+time&sca_esv=7933640830a9b7d9&ei=xgJUZ5TzPKjCp84P65rhyAo&start=10&sa=N&sstk=ATObxK6WBiOUWBzCFwkhRLeSVCctJVwQ2NFcC_qzQ7XbGjEKpWO1t9nJzVVB_Go3YTD4CrQz3vd3SYwB2L2ToA8xqafDh78eC3q2Eg&ved=2ahUKEwiU7oO7mpWKAxUo4ckDHWtNGKkQ8NMDegQIDBAW", "other_pages": [{"page": 2, "link": "https://www.google.com/search?q=How+to+bathe+a+horse+for+the+first+time&sca_esv=7933640830a9b7d9&ei=xgJUZ5TzPKjCp84P65rhyAo&start=10&sa=N&sstk=ATObxK6WBiOUWBzCFwkhRLeSVCctJVwQ2NFcC_qzQ7XbGjEKpWO1t9nJzVVB_Go3YTD4CrQz3vd3SYwB2L2ToA8xqafDh78eC3q2Eg&ved=2ahUKEwiU7oO7mpWKAxUo4ckDHWtNGKkQ8tMDegQIDBAE"}, {"page": 3, "link": "https://www.google.com/search?q=How+to+bathe+a+horse+for+the+first+time&sca_esv=7933640830a9b7d9&ei=xgJUZ5TzPKjCp84P65rhyAo&start=20&sa=N&sstk=ATObxK6WBiOUWBzCFwkhRLeSVCctJVwQ2NFcC_qzQ7XbGjEKpWO1t9nJzVVB_Go3YTD4CrQz3vd3SYwB2L2ToA8xqafDh78eC3q2Eg&ved=2ahUKEwiU7oO7mpWKAxUo4ckDHWtNGKkQ8tMDegQIDBAG"}, {"page": 4, "link": "https://www.google.com/search?q=How+to+bathe+a+horse+for+the+first+time&sca_esv=7933640830a9b7d9&ei=xgJUZ5TzPKjCp84P65rhyAo&start=30&sa=N&sstk=ATObxK6WBiOUWBzCFwkhRLeSVCctJVwQ2NFcC_qzQ7XbGjEKpWO1t9nJzVVB_Go3YTD4CrQz3vd3SYwB2L2ToA8xqafDh78eC3q2Eg&ved=2ahUKEwiU7oO7mpWKAxUo4ckDHWtNGKkQ8tMDegQIDBAI"}, {"page": 5, "link": "https://www.google.com/search?q=How+to+bathe+a+horse+for+the+first+time&sca_esv=7933640830a9b7d9&ei=xgJUZ5TzPKjCp84P65rhyAo&start=40&sa=N&sstk=ATObxK6WBiOUWBzCFwkhRLeSVCctJVwQ2NFcC_qzQ7XbGjEKpWO1t9nJzVVB_Go3YTD4CrQz3vd3SYwB2L2ToA8xqafDh78eC3q2Eg&ved=2ahUKEwiU7oO7mpWKAxUo4ckDHWtNGKkQ8tMDegQIDBAK"}, {"page": 6, "link": "https://www.google.com/search?q=How+to+bathe+a+horse+for+the+first+time&sca_esv=7933640830a9b7d9&ei=xgJUZ5TzPKjCp84P65rhyAo&start=50&sa=N&sstk=ATObxK6WBiOUWBzCFwkhRLeSVCctJVwQ2NFcC_qzQ7XbGjEKpWO1t9nJzVVB_Go3YTD4CrQz3vd3SYwB2L2ToA8xqafDh78eC3q2Eg&ved=2ahUKEwiU7oO7mpWKAxUo4ckDHWtNGKkQ8tMDegQIDBAM"}, {"page": 7, "link": "https://www.google.com/search?q=How+to+bathe+a+horse+for+the+first+time&sca_esv=7933640830a9b7d9&ei=xgJUZ5TzPKjCp84P65rhyAo&start=60&sa=N&sstk=ATObxK6WBiOUWBzCFwkhRLeSVCctJVwQ2NFcC_qzQ7XbGjEKpWO1t9nJzVVB_Go3YTD4CrQz3vd3SYwB2L2ToA8xqafDh78eC3q2Eg&ved=2ahUKEwiU7oO7mpWKAxUo4ckDHWtNGKkQ8tMDegQIDBAO"}, {"page": 8, "link": "https://www.google.com/search?q=How+to+bathe+a+horse+for+the+first+time&sca_esv=7933640830a9b7d9&ei=xgJUZ5TzPKjCp84P65rhyAo&start=70&sa=N&sstk=ATObxK6WBiOUWBzCFwkhRLeSVCctJVwQ2NFcC_qzQ7XbGjEKpWO1t9nJzVVB_Go3YTD4CrQz3vd3SYwB2L2ToA8xqafDh78eC3q2Eg&ved=2ahUKEwiU7oO7mpWKAxUo4ckDHWtNGKkQ8tMDegQIDBAQ"}, {"page": 9, "link": "https://www.google.com/search?q=How+to+bathe+a+horse+for+the+first+time&sca_esv=7933640830a9b7d9&ei=xgJUZ5TzPKjCp84P65rhyAo&start=80&sa=N&sstk=ATObxK6WBiOUWBzCFwkhRLeSVCctJVwQ2NFcC_qzQ7XbGjEKpWO1t9nJzVVB_Go3YTD4CrQz3vd3SYwB2L2ToA8xqafDh78eC3q2Eg&ved=2ahUKEwiU7oO7mpWKAxUo4ckDHWtNGKkQ8tMDegQIDBAS"}, {"page": 10, "link": "https://www.google.com/search?q=How+to+bathe+a+horse+for+the+first+time&sca_esv=7933640830a9b7d9&ei=xgJUZ5TzPKjCp84P65rhyAo&start=90&sa=N&sstk=ATObxK6WBiOUWBzCFwkhRLeSVCctJVwQ2NFcC_qzQ7XbGjEKpWO1t9nJzVVB_Go3YTD4CrQz3vd3SYwB2L2ToA8xqafDh78eC3q2Eg&ved=2ahUKEwiU7oO7mpWKAxUo4ckDHWtNGKkQ8tMDegQIDBAU"}], "api_pagination": {"next": "https://api.serpwow.com/live/search?api_key=7B8A01FF4547497FA11B152D4400B2F9&q=How%20to%20bathe%20a%20horse%20for%20the%20first%20time&engine=google&google_domain=google.com&id=req0&page=2", "other_pages": [{"page": 2, "link": "https://api.serpwow.com/live/search?api_key=7B8A01FF4547497FA11B152D4400B2F9&q=How%20to%20bathe%20a%20horse%20for%20the%20first%20time&engine=google&google_domain=google.com&id=req0&page=2"}, {"page": 3, "link": "https://api.serpwow.com/live/search?api_key=7B8A01FF4547497FA11B152D4400B2F9&q=How%20to%20bathe%20a%20horse%20for%20the%20first%20time&engine=google&google_domain=google.com&id=req0&page=3"}, {"page": 4, "link": "https://api.serpwow.com/live/search?api_key=7B8A01FF4547497FA11B152D4400B2F9&q=How%20to%20bathe%20a%20horse%20for%20the%20first%20time&engine=google&google_domain=google.com&id=req0&page=4"}, {"page": 5, "link": "https://api.serpwow.com/live/search?api_key=7B8A01FF4547497FA11B152D4400B2F9&q=How%20to%20bathe%20a%20horse%20for%20the%20first%20time&engine=google&google_domain=google.com&id=req0&page=5"}, {"page": 6, "link": "https://api.serpwow.com/live/search?api_key=7B8A01FF4547497FA11B152D4400B2F9&q=How%20to%20bathe%20a%20horse%20for%20the%20first%20time&engine=google&google_domain=google.com&id=req0&page=6"}, {"page": 7, "link": "https://api.serpwow.com/live/search?api_key=7B8A01FF4547497FA11B152D4400B2F9&q=How%20to%20bathe%20a%20horse%20for%20the%20first%20time&engine=google&google_domain=google.com&id=req0&page=7"}, {"page": 8, "link": "https://api.serpwow.com/live/search?api_key=7B8A01FF4547497FA11B152D4400B2F9&q=How%20to%20bathe%20a%20horse%20for%20the%20first%20time&engine=google&google_domain=google.com&id=req0&page=8"}, {"page": 9, "link": "https://api.serpwow.com/live/search?api_key=7B8A01FF4547497FA11B152D4400B2F9&q=How%20to%20bathe%20a%20horse%20for%20the%20first%20time&engine=google&google_domain=google.com&id=req0&page=9"}, {"page": 10, "link": "https://api.serpwow.com/live/search?api_key=7B8A01FF4547497FA11B152D4400B2F9&q=How%20to%20bathe%20a%20horse%20for%20the%20first%20time&engine=google&google_domain=google.com&id=req0&page=10"}]}}}