{"request_info": {"success": true, "credits_used": 30, "credits_remaining": 70, "credits_used_this_request": 1}, "search_parameters": {"q": "How to wash a horses mane", "engine": "google", "google_domain": "google.com"}, "search_metadata": {"created_at": "2024-12-07T08:10:09.136Z", "processed_at": "2024-12-07T08:10:15.700Z", "total_time_taken": 6.56, "engine_url": "https://www.google.com/search?q=How+to+wash+a+horses+mane", "html_url": "https://api.serpwow.com/live/search?api_key=7B8A01FF4547497FA11B152D4400B2F9&q=How+to+wash+a+horses+mane&engine=google&google_domain=google.com&output=html", "json_url": "https://api.serpwow.com/live/search?api_key=7B8A01FF4547497FA11B152D4400B2F9&q=How+to+wash+a+horses+mane&engine=google&google_domain=google.com&output=json"}, "organic_results": [{"position": 1, "block_position": 4, "title": "Washing Your Horse's Mane and Tail", "link": "https://www.youngrider.com/washing-your-horses-mane-and-tail/", "domain": "www.youngrider.com", "displayed_link": "https://www.youngrider.com \u203a wa...", "snippet": "29 mai 2024 \u2014 Follow these steps to wash your horse's mane: Wet the mane thoroughly. Work shampoo in and scrub down to the roots. Be sure to rinse ALL the shampoo out.", "prerender": false, "date": "29 mai 2024", "date_utc": "2024-05-29T00:00:00.000Z"}, {"position": 2, "block_position": 5, "title": "How to Care for a Mane and Tail", "link": "https://www.horseillustrated.com/mane-and-tail-care?srsltid=AfmBOop9ZVlSEwO3f8lfTcOjtDx1BjNWqBRAL7Re_GbanU_2T4NK2_z-", "domain": "www.horseillustrated.com", "displayed_link": "https://www.horseillustrated.com \u203a ...", "snippet": "Wet the mane or tail down, then work in your favorite horse shampoo, really getting down to the roots of the hair. A lot of dirt can get stuck at skin level, ...", "prerender": false}, {"position": 3, "block_position": 6, "title": "How to bath a horse correctly: a step-by-step guide", "link": "https://www.horseandhound.co.uk/features/how-to-bath-a-horse-step-by-step-guide-58263", "domain": "www.horseandhound.co.uk", "displayed_link": "https://www.horseandhound.co.uk \u203a ...", "snippet": "12 janv. 2022 \u2014 Wash the mane as you would the rest of the body, wetting it first and then applying shampoo with a sponge. If it is knotted, use detangler.", "prerender": false, "date": "12 janv. 2022", "date_utc": "2022-01-12T00:00:00.000Z"}, {"position": 4, "block_position": 7, "title": "Wash Your Horse's Mane and Tail in Winter", "link": "https://proequinegrooms.com/tips/manes-and-tails/how-clean-your-horses-mane-and-tail-winter/", "domain": "proequinegrooms.com", "displayed_link": "https://proequinegrooms.com \u203a tips", "snippet": "Use a hot toweling technique for the mane and tail. Basically, get a steamy hot cloth and then wipe the mane in tiny sections. The steamy moisture will do its ...", "prerender": false}, {"position": 5, "block_position": 8, "title": "How to care for a horse's coat, mane and tail", "link": "https://www.equesure.co.uk/contact-us/news-events/how-to-care-for-a-horse-s-coat-mane-and-tail/", "domain": "www.equesure.co.uk", "displayed_link": "https://www.equesure.co.uk \u203a how-...", "snippet": "If it's particularly dirty, apply undiluted shampoo directly to the mane. Thoroughly rinse the entire horse, squeegee off the water and dry your horse in the ...", "prerender": false}, {"position": 6, "block_position": 9, "title": "The Art of Washing Your Horse: A Step-by Step Guide", "link": "https://coromandelequine.com.au/blogs/news/the-art-of-washing-your-horse-a-step-by-step-guide?srsltid=AfmBOorsupdpxdMe5XYvwBFcvpoQtKm5DYeywVqCwNRfhlOhpWa56nhz", "domain": "coromandelequine.com.au", "displayed_link": "https://coromandelequine.com.au \u203a ...", "snippet": "24 juin 2024 \u2014 You'll need a hose with running water, a bucket, horse shampoo, horse conditioner, a sponge or soft brush, a sweat scraper, and towels.", "prerender": false, "date": "24 juin 2024", "date_utc": "2024-06-24T00:00:00.000Z"}, {"position": 7, "block_position": 10, "title": "How To Properly Shampoo the Mane", "link": "https://biomane.com/blogs/how-to/how-to-properly-shampoo-the-mane", "domain": "biomane.com", "displayed_link": "https://biomane.com \u203a blogs \u203a ho...", "snippet": "11 oct. 2021 \u2014 Starting at the roots of the mane, begin the wash the shampoo out of the mane. As you get closer to the horse's face, turn down the pressure or ...", "prerender": false, "date": "11 oct. 2021", "date_utc": "2021-10-11T00:00:00.000Z"}], "related_searches": [{"query": "How to wash your horse", "link": "https://www.google.com/search?sca_esv=7933640830a9b7d9&q=How+to+wash+your+horse&sa=X&ved=2ahUKEwiFtdfHmpWKAxUpVEEAHQhXBToQ1QJ6BAhQEAE", "block_position": 12}, {"query": "How to bathe a horse wikihow", "link": "https://www.google.com/search?sca_esv=7933640830a9b7d9&q=How+to+bathe+a+horse+wikihow&sa=X&ved=2ahUKEwiFtdfHmpWKAxUpVEEAHQhXBToQ1QJ6BAhPEAE", "block_position": 12}, {"query": "Horse wash water Heater", "link": "https://www.google.com/search?sca_esv=7933640830a9b7d9&q=Horse+wash+water+Heater&sa=X&ved=2ahUKEwiFtdfHmpWKAxUpVEEAHQhXBToQ1QJ6BAhREAE", "block_position": 12}, {"query": "Horse hot wash", "link": "https://www.google.com/search?sca_esv=7933640830a9b7d9&q=Horse+hot+wash&sa=X&ved=2ahUKEwiFtdfHmpWKAxUpVEEAHQhXBToQ1QJ6BAhOEAE", "block_position": 12}, {"query": "Mobile horse hot wash", "link": "https://www.google.com/search?sca_esv=7933640830a9b7d9&q=Mobile+horse+hot+wash&sa=X&ved=2ahUKEwiFtdfHmpWKAxUpVEEAHQhXBToQ1QJ6BAhLEAE", "block_position": 12}, {"query": "How to keep a white horse clean", "link": "https://www.google.com/search?sca_esv=7933640830a9b7d9&q=How+to+keep+a+white+horse+clean&sa=X&ved=2ahUKEwiFtdfHmpWKAxUpVEEAHQhXBToQ1QJ6BAhFEAE", "block_position": 12}, {"query": "Electric hot water horse wash", "link": "https://www.google.com/search?sca_esv=7933640830a9b7d9&q=Electric+hot+water+horse+wash&sa=X&ved=2ahUKEwiFtdfHmpWKAxUpVEEAHQhXBToQ1QJ6BAg9EAE", "block_position": 12}, {"query": "How to keep a grey horse clean", "link": "https://www.google.com/search?sca_esv=7933640830a9b7d9&q=How+to+keep+a+grey+horse+clean&sa=X&ved=2ahUKEwiFtdfHmpWKAxUpVEEAHQhXBToQ1QJ6BAg8EAE", "block_position": 12}], "related_questions": [{"question": "How do you take care of a horse's mane?", "answer": "Regular Grooming and Moisturizing Use a quality detangling brush or comb with wide teeth to gently remove any tangles or debris. Be cautious not to be too forceful, as excessive pulling can weaken the hair. To combat dryness and keep the mane moisturized, consider using a mane moisturizer or oil treatment.", "source": {"link": "https://www.carterveterinaryservices.com/blog/fallwinter-mane-care-tips-for-horse-owners", "displayed_link": "https://www.carterveterinaryservices.com \u203a blog \u203a fallwi...", "title": "Fall/Winter Mane Care Tips for Horse Owners - Carter Veterinary Services"}, "block_position": 2}, {"question": "What is the best thing to wash a horse with?", "answer": "DO: Use a gentle soap. If you want to be fancy: I like Corona shampoo or Effol Shampoo. They gently wash away dirt / grease without drying the hair & they both rinse easily. If you need to be economical: Dawn dish soap does the same thing... washes away dirt / grease without taking the moisture out of the hair.", "source": {"link": "http://www.kentuckyequestrian.com/main.cfm?action=articles&sub=view&ID=1147", "displayed_link": "http://www.kentuckyequestrian.com \u203a ...", "title": "Kentucky Equestrian Articles"}, "block_position": 2}, {"question": "Can you pull a horse's mane wet?", "answer": "Yes it's fine to - it plaits much tidier when wet, spray with a little air spray and it will turn out great.", "source": {"link": "https://forums.horseandhound.co.uk/threads/help-can-you-plait-a-wet-mane.540053/", "displayed_link": "https://forums.horseandhound.co.uk \u203a threads \u203a help-can...", "title": "help!! can you plait a wet mane?! | Horse and Hound Forum"}, "block_position": 2}, {"question": "How do you groom a horse's mane?", "answer": "The best thing you can do with a long mane is carefully detangle it with your fingers every time you groom your horse. Don't tear through it with a comb or brush, as that will just rip out some of the hair. Take your time and work through any knots, untangling a few hairs at a time.", "source": {"link": "https://www.horseillustrated.com/mane-and-tail-care", "displayed_link": "https://www.horseillustrated.com \u203a mane-and-tail-care", "title": "How to Care for a Mane and Tail - Horse Illustrated"}, "block_position": 2}], "inline_videos": [{"position": 1, "title": "How To Wash Your Horse's Mane", "length": "12.05", "source": "YouTube \u00b7 BioMane Products", "date": "14 juil. 2019", "link": "https://www.youtube.com/watch?v=s9NfSqgDKwo", "block_position": 3}, {"position": 2, "title": "Wash your horse's mane and tail in winter", "length": "1.1", "source": "YouTube \u00b7 Professional Equine Grooms", "date": "28 f\u00e9vr. 2023", "link": "https://www.youtube.com/watch?v=SKOiZFV8V_E", "block_position": 3}, {"position": 3, "title": "How to \"wash\" your horse's mane in the winter.", "length": "2.41", "source": "YouTube \u00b7 Professional Equine Grooms", "date": "30 nov. 2018", "date_utc": "2018-11-30T00:00:00.000Z", "link": "https://www.youtube.com/watch?v=8pU87g-TASs", "block_position": 3}, {"position": 4, "title": "Horse grooming tips - Clean your horse's mane in winter", "length": "1.24", "source": "YouTube \u00b7 Professional Equine Grooms", "date": "11 d\u00e9c. 2023", "link": "https://www.youtube.com/watch?v=lWiEngaDI2w", "block_position": 3}], "inline_images": [{"title": "Washing Your Horse's Mane and Tail - Young Rider Magazine", "image": "data:image/gif;base64,R0lGODlhAQABAIAAAP///////yH5BAEKAAEALAAAAAABAAEAAAICTAEAOw==", "link": "https://www.youngrider.com/washing-your-horses-mane-and-tail/", "block_position": 11}, {"title": "Washing A Horse - Tips On How To Bath A Horse or Pony ...", "image": "data:image/gif;base64,R0lGODlhAQABAIAAAP///////yH5BAEKAAEALAAAAAABAAEAAAICTAEAOw==", "link": "https://basic-horse-care.com/grooming/washing/", "block_position": 11}, {"title": "Wash Your Horse's Mane and Tail in Winter - Pro Equine Grooms", "image": "data:image/gif;base64,R0lGODlhAQABAIAAAP///////yH5BAEKAAEALAAAAAABAAEAAAICTAEAOw==", "link": "https://proequinegrooms.com/tips/manes-and-tails/how-clean-your-horses-mane-and-tail-winter/", "block_position": 11}], "answer_box": {"answer_box_type": 18, "answers": [{"source": {"link": "https://smartgrooming.com/blogs/horse-care-tips-from-the-experts/how-to-wash-a-mane-and-tail", "title": "How to Wash a Mane and Tail - Smart Grooming", "displayed_link": "https://smartgrooming.com \u203a blogs \u203a how-to-wash-a-ma..."}, "answer": "6 avr. 2023"}], "block_position": 1}, "search_information": {"original_query_yields_zero_results": false, "total_results": 12000000}, "pagination": {"current": 12345678910, "next": "https://www.google.com/search?q=How+to+wash+a+horses+mane&sca_esv=7933640830a9b7d9&ei=4QJUZ8XAIKmohbIPiK6V0AM&start=10&sa=N&sstk=ATObxK7ALvOJw0edIA9YLTaiw9J8BJ0WseZuC8geYVqxF9G1k7VkoeUE-VdssdI4BPsuz3UtHwN2M6T-b8bYSZeZNKsa3DBt3nEFeA&ved=2ahUKEwiFtdfHmpWKAxUpVEEAHQhXBToQ8NMDegQIDRAW", "other_pages": [{"page": 2, "link": "https://www.google.com/search?q=How+to+wash+a+horses+mane&sca_esv=7933640830a9b7d9&ei=4QJUZ8XAIKmohbIPiK6V0AM&start=10&sa=N&sstk=ATObxK7ALvOJw0edIA9YLTaiw9J8BJ0WseZuC8geYVqxF9G1k7VkoeUE-VdssdI4BPsuz3UtHwN2M6T-b8bYSZeZNKsa3DBt3nEFeA&ved=2ahUKEwiFtdfHmpWKAxUpVEEAHQhXBToQ8tMDegQIDRAE"}, {"page": 3, "link": "https://www.google.com/search?q=How+to+wash+a+horses+mane&sca_esv=7933640830a9b7d9&ei=4QJUZ8XAIKmohbIPiK6V0AM&start=20&sa=N&sstk=ATObxK7ALvOJw0edIA9YLTaiw9J8BJ0WseZuC8geYVqxF9G1k7VkoeUE-VdssdI4BPsuz3UtHwN2M6T-b8bYSZeZNKsa3DBt3nEFeA&ved=2ahUKEwiFtdfHmpWKAxUpVEEAHQhXBToQ8tMDegQIDRAG"}, {"page": 4, "link": "https://www.google.com/search?q=How+to+wash+a+horses+mane&sca_esv=7933640830a9b7d9&ei=4QJUZ8XAIKmohbIPiK6V0AM&start=30&sa=N&sstk=ATObxK7ALvOJw0edIA9YLTaiw9J8BJ0WseZuC8geYVqxF9G1k7VkoeUE-VdssdI4BPsuz3UtHwN2M6T-b8bYSZeZNKsa3DBt3nEFeA&ved=2ahUKEwiFtdfHmpWKAxUpVEEAHQhXBToQ8tMDegQIDRAI"}, {"page": 5, "link": "https://www.google.com/search?q=How+to+wash+a+horses+mane&sca_esv=7933640830a9b7d9&ei=4QJUZ8XAIKmohbIPiK6V0AM&start=40&sa=N&sstk=ATObxK7ALvOJw0edIA9YLTaiw9J8BJ0WseZuC8geYVqxF9G1k7VkoeUE-VdssdI4BPsuz3UtHwN2M6T-b8bYSZeZNKsa3DBt3nEFeA&ved=2ahUKEwiFtdfHmpWKAxUpVEEAHQhXBToQ8tMDegQIDRAK"}, {"page": 6, "link": "https://www.google.com/search?q=How+to+wash+a+horses+mane&sca_esv=7933640830a9b7d9&ei=4QJUZ8XAIKmohbIPiK6V0AM&start=50&sa=N&sstk=ATObxK7ALvOJw0edIA9YLTaiw9J8BJ0WseZuC8geYVqxF9G1k7VkoeUE-VdssdI4BPsuz3UtHwN2M6T-b8bYSZeZNKsa3DBt3nEFeA&ved=2ahUKEwiFtdfHmpWKAxUpVEEAHQhXBToQ8tMDegQIDRAM"}, {"page": 7, "link": "https://www.google.com/search?q=How+to+wash+a+horses+mane&sca_esv=7933640830a9b7d9&ei=4QJUZ8XAIKmohbIPiK6V0AM&start=60&sa=N&sstk=ATObxK7ALvOJw0edIA9YLTaiw9J8BJ0WseZuC8geYVqxF9G1k7VkoeUE-VdssdI4BPsuz3UtHwN2M6T-b8bYSZeZNKsa3DBt3nEFeA&ved=2ahUKEwiFtdfHmpWKAxUpVEEAHQhXBToQ8tMDegQIDRAO"}, {"page": 8, "link": "https://www.google.com/search?q=How+to+wash+a+horses+mane&sca_esv=7933640830a9b7d9&ei=4QJUZ8XAIKmohbIPiK6V0AM&start=70&sa=N&sstk=ATObxK7ALvOJw0edIA9YLTaiw9J8BJ0WseZuC8geYVqxF9G1k7VkoeUE-VdssdI4BPsuz3UtHwN2M6T-b8bYSZeZNKsa3DBt3nEFeA&ved=2ahUKEwiFtdfHmpWKAxUpVEEAHQhXBToQ8tMDegQIDRAQ"}, {"page": 9, "link": "https://www.google.com/search?q=How+to+wash+a+horses+mane&sca_esv=7933640830a9b7d9&ei=4QJUZ8XAIKmohbIPiK6V0AM&start=80&sa=N&sstk=ATObxK7ALvOJw0edIA9YLTaiw9J8BJ0WseZuC8geYVqxF9G1k7VkoeUE-VdssdI4BPsuz3UtHwN2M6T-b8bYSZeZNKsa3DBt3nEFeA&ved=2ahUKEwiFtdfHmpWKAxUpVEEAHQhXBToQ8tMDegQIDRAS"}, {"page": 10, "link": "https://www.google.com/search?q=How+to+wash+a+horses+mane&sca_esv=7933640830a9b7d9&ei=4QJUZ8XAIKmohbIPiK6V0AM&start=90&sa=N&sstk=ATObxK7ALvOJw0edIA9YLTaiw9J8BJ0WseZuC8geYVqxF9G1k7VkoeUE-VdssdI4BPsuz3UtHwN2M6T-b8bYSZeZNKsa3DBt3nEFeA&ved=2ahUKEwiFtdfHmpWKAxUpVEEAHQhXBToQ8tMDegQIDRAU"}], "api_pagination": {"next": "https://api.serpwow.com/live/search?api_key=7B8A01FF4547497FA11B152D4400B2F9&q=How%20to%20wash%20a%20horses%20mane&engine=google&google_domain=google.com&id=req0&page=2", "other_pages": [{"page": 2, "link": "https://api.serpwow.com/live/search?api_key=7B8A01FF4547497FA11B152D4400B2F9&q=How%20to%20wash%20a%20horses%20mane&engine=google&google_domain=google.com&id=req0&page=2"}, {"page": 3, "link": "https://api.serpwow.com/live/search?api_key=7B8A01FF4547497FA11B152D4400B2F9&q=How%20to%20wash%20a%20horses%20mane&engine=google&google_domain=google.com&id=req0&page=3"}, {"page": 4, "link": "https://api.serpwow.com/live/search?api_key=7B8A01FF4547497FA11B152D4400B2F9&q=How%20to%20wash%20a%20horses%20mane&engine=google&google_domain=google.com&id=req0&page=4"}, {"page": 5, "link": "https://api.serpwow.com/live/search?api_key=7B8A01FF4547497FA11B152D4400B2F9&q=How%20to%20wash%20a%20horses%20mane&engine=google&google_domain=google.com&id=req0&page=5"}, {"page": 6, "link": "https://api.serpwow.com/live/search?api_key=7B8A01FF4547497FA11B152D4400B2F9&q=How%20to%20wash%20a%20horses%20mane&engine=google&google_domain=google.com&id=req0&page=6"}, {"page": 7, "link": "https://api.serpwow.com/live/search?api_key=7B8A01FF4547497FA11B152D4400B2F9&q=How%20to%20wash%20a%20horses%20mane&engine=google&google_domain=google.com&id=req0&page=7"}, {"page": 8, "link": "https://api.serpwow.com/live/search?api_key=7B8A01FF4547497FA11B152D4400B2F9&q=How%20to%20wash%20a%20horses%20mane&engine=google&google_domain=google.com&id=req0&page=8"}, {"page": 9, "link": "https://api.serpwow.com/live/search?api_key=7B8A01FF4547497FA11B152D4400B2F9&q=How%20to%20wash%20a%20horses%20mane&engine=google&google_domain=google.com&id=req0&page=9"}, {"page": 10, "link": "https://api.serpwow.com/live/search?api_key=7B8A01FF4547497FA11B152D4400B2F9&q=How%20to%20wash%20a%20horses%20mane&engine=google&google_domain=google.com&id=req0&page=10"}]}}}