{"request_info": {"success": true, "credits_used": 25, "credits_remaining": 75, "credits_used_this_request": 1}, "search_parameters": {"q": "Best horse bath", "engine": "google", "google_domain": "google.com"}, "search_metadata": {"created_at": "2024-12-07T08:09:46.122Z", "processed_at": "2024-12-07T08:09:50.134Z", "total_time_taken": 4.01, "engine_url": "https://www.google.com/search?q=Best+horse+bath", "html_url": "https://api.serpwow.com/live/search?api_key=7B8A01FF4547497FA11B152D4400B2F9&q=Best+horse+bath&engine=google&google_domain=google.com&output=html", "json_url": "https://api.serpwow.com/live/search?api_key=7B8A01FF4547497FA11B152D4400B2F9&q=Best+horse+bath&engine=google&google_domain=google.com&output=json"}, "organic_results": [{"position": 1, "block_position": 1, "title": "Top 7 Horse Shampoos and Conditioners for Healthy Coats", "link": "https://www.sstack.com/blog/grooming/top-7-horse-shampoos-and-conditioners/b/r0271/?srsltid=AfmBOoo7EwxzYhLaj4aB3_E3SjTBJfwRXVyg80gc4Cc_t4AHg5xtaYCh", "domain": "www.sstack.com", "displayed_link": "https://www.sstack.com \u203a Schneiders Blog \u203a Grooming", "snippet": "May 3, 2024 \u2014 The 7 Best Horse Shampoos and Conditioners for Healthy Coats \u00b7 Ultra\u00ae Conditioning Shampoo \u00b7 Equiderma\u2122 Sulfate Free Neem & Arnica Shampoo \u00b7 Ultra\u00ae ...", "prerender": false, "date": "May 3, 2024", "date_utc": "2024-05-03T00:00:00.000Z"}, {"position": 2, "block_position": 11, "title": "What bathing supplies are the best?", "link": "https://www.horseforum.com/threads/what-bathing-supplies-are-the-best.169729/", "domain": "www.horseforum.com", "displayed_link": "https://www.horseforum.com \u203a threads \u203a what-bathing-...", "snippet": "Apr 6, 2013 \u2014 I love Cowboy Magic, Mane & Tail, and Eqyss. Mane and Tail makes their coats super soft, but I usually use Eqyss or Cowboy magic to really scrub ...", "prerender": false, "sitelinks": {"expanded": [{"title": "Best inexpensive horse shampoo? - The Horse Forum", "link": "https://www.horseforum.com/threads/best-inexpensive-horse-shampoo.152210/", "snippet": "", "date_raw": "Feb 3, 2013", "date": "2013-02-03T00:00:00.000Z", "answers": null, "answers_raw": null}, {"title": "What bathing supplies are the best? | Page 2 - The Horse Forum", "link": "https://www.horseforum.com/threads/what-bathing-supplies-are-the-best.169729/page-2", "snippet": "", "date_raw": "Nov 27, 2024", "date": "2024-11-27T00:00:00.000Z", "answers": null, "answers_raw": null}, {"title": "Best inexpensive horse shampoo? | Page 2 - The Horse Forum", "link": "https://www.horseforum.com/threads/best-inexpensive-horse-shampoo.152210/page-2", "snippet": "", "date_raw": "Mar 23, 2021", "date": "2021-03-23T00:00:00.000Z", "answers": null, "answers_raw": null}, {"title": "More results from www.horseforum.com", "link": "/search?q=Best+horse+bath+site:www.horseforum.com&sca_esv=7933640830a9b7d9&sa=X&ved=2ahUKEwjI9Ia9mpWKAxWDr-4BHaJUHt0QrQIoA3oECBgQBA", "snippet": "", "date_raw": "", "date": null, "answers": null, "answers_raw": null}]}, "sitelinks_search_box": false, "date": "Apr 6, 2013", "date_utc": "2013-04-06T00:00:00.000Z"}, {"position": 3, "block_position": 13, "title": "Good body washes/shampoos for Horses", "link": "https://www.reddit.com/r/Horses/comments/1bvmesu/good_body_washesshampoos_for_horses/", "domain": "www.reddit.com", "displayed_link": "10+ comments  \u00b7  8 months ago", "snippet": "I am looking for a new body shampoo/wash for my mare. She gets FILTHY in the summer and I am looking to see what everyone uses. What is everyone's favorite?", "prerender": false, "sitelinks": {"expanded": [{"title": "Good horse shampoo : r/Horses", "link": "https://www.reddit.com/r/Horses/comments/qyk2zh/good_horse_shampoo/", "snippet": "", "date_raw": "Nov 21, 2021", "date": "2021-11-21T00:00:00.000Z", "answers": null, "answers_raw": null}, {"title": "Bathing Product Suggestions : r/Equestrian", "link": "https://www.reddit.com/r/Equestrian/comments/1ampe19/bathing_product_suggestions/", "snippet": "", "date_raw": "Feb 9, 2024", "date": "2024-02-09T00:00:00.000Z", "answers": null, "answers_raw": null}, {"title": "Fav bathing products for white horses? : r/Equestrian", "link": "https://www.reddit.com/r/Equestrian/comments/1aris7j/fav_bathing_products_for_white_horses/", "snippet": "", "date_raw": "Feb 15, 2024", "date": "2024-02-15T00:00:00.000Z", "answers": null, "answers_raw": null}, {"title": "Bathing a horse", "link": "https://www.reddit.com/r/Horses/comments/ty4am3/bathing_a_horse/", "snippet": "", "date_raw": "Apr 7, 2022", "date": "2022-04-07T00:00:00.000Z", "answers": null, "answers_raw": null}, {"title": "More results from www.reddit.com", "link": "/search?q=Best+horse+bath+site:www.reddit.com&sca_esv=7933640830a9b7d9&sa=X&ved=2ahUKEwjI9Ia9mpWKAxWDr-4BHaJUHt0QrQIoBHoECEEQBQ", "snippet": "", "date_raw": "", "date": null, "answers": null, "answers_raw": null}]}, "sitelinks_search_box": false}, {"position": 4, "block_position": 14, "title": "How to Bathe Your Horse", "link": "https://www.farnam.com/stable-talk/how-to-bathe-your-horse", "domain": "www.farnam.com", "displayed_link": "https://www.farnam.com \u203a Stable Talk", "snippet": "Oct 26, 2023 \u2014 It's a good plan to begin by wetting his hooves and legs, then gently work your way up to his body as he gets used to the feeling of the water.", "prerender": false, "date": "Oct 26, 2023", "date_utc": "2023-10-26T00:00:00.000Z"}, {"position": 5, "block_position": 15, "title": "What products do I need for bathing my horse?", "link": "https://smartgrooming.com/blogs/horse-care-tips-from-the-experts/what-products-do-i-need-for-bathing-my-horse?srsltid=AfmBOormUrVhsB2F8Je977RYpvB5yOIPYNTNyksL9GR5SapEhgtvfpI4", "domain": "smartgrooming.com", "displayed_link": "https://smartgrooming.com \u203a blogs \u203a what-products-do-i...", "snippet": "Apr 6, 2023 \u2014 For a regular bathing routine, we suggest: A good quality horse shampoo; Sponge or wash mitt; Bucket; Sweat scraper; Dry off towel ...", "prerender": false, "date": "Apr 6, 2023", "date_utc": "2023-04-06T00:00:00.000Z"}, {"position": 6, "block_position": 16, "title": "How to bath a horse correctly: a step-by-step guide", "link": "https://www.horseandhound.co.uk/features/how-to-bath-a-horse-step-by-step-guide-58263", "domain": "www.horseandhound.co.uk", "displayed_link": "https://www.horseandhound.co.uk \u203a Features", "snippet": "Jan 12, 2022 \u2014 Add shampoo to the bucket of water as per the instructions on the bottle, then dip the sponge in the soapy water and rub it all over the horse's ...", "prerender": false, "date": "Jan 12, 2022", "date_utc": "2022-01-12T00:00:00.000Z"}, {"position": 7, "block_position": 17, "title": "Best Way to \"bathe\" in the freezing cold?", "link": "https://forum.chronofhorse.com/t/best-way-to-bathe-in-the-freezing-cold/423469", "domain": "forum.chronofhorse.com", "displayed_link": "https://forum.chronofhorse.com \u203a best-way-to-bathe-in-...", "snippet": "Hot towel him. When you're done, spray a mix of rubbing alcohol, witch hazel, and coat conditioner on a white towel and rub down to lift off any excess you ...", "prerender": false}, {"position": 8, "block_position": 18, "title": "How To Bathe Your Horse: The Ultimate Guide", "link": "https://mynewhorse.equusmagazine.com/2023/08/10/how-to-bathe-your-horse-the-ultimate-guide/", "domain": "mynewhorse.equusmagazine.com", "displayed_link": "https://mynewhorse.equusmagazine.com \u203a Blog", "snippet": "Aug 10, 2023 \u2014 If possible, find a skid-free, mud-free surface. The best place to wash a horse has a surface that won't become a mud puddle when wet. You also ...", "prerender": false, "date": "Aug 10, 2023", "date_utc": "2023-08-10T00:00:00.000Z"}, {"position": 9, "block_position": 19, "title": "Bathing/Washing horses in winter - best method?", "link": "https://forums.horseandhound.co.uk/threads/bathing-washing-horses-in-winter-best-method.410937/", "domain": "forums.horseandhound.co.uk", "displayed_link": "https://forums.horseandhound.co.uk \u203a threads \u203a bathing-...", "snippet": "Oct 26, 2010 \u2014 Use a hot bucket of water, put a cloth in for as long as you can bear it. Wring it out really well and use it against the coat to wash your horse.", "prerender": false, "date": "Oct 26, 2010", "date_utc": "2010-10-26T00:00:00.000Z"}], "related_searches": [{"query": "Best horse bath products", "link": "https://www.google.com/search?sca_esv=7933640830a9b7d9&q=Best+horse+bath+products&sa=X&ved=2ahUKEwjI9Ia9mpWKAxWDr-4BHaJUHt0Q1QJ6BAhiEAE", "block_position": 20}, {"query": "Best horse bath reddit", "link": "https://www.google.com/search?sca_esv=7933640830a9b7d9&q=Best+horse+bath+reddit&sa=X&ved=2ahUKEwjI9Ia9mpWKAxWDr-4BHaJUHt0Q1QJ6BAhhEAE", "block_position": 20}, {"query": "Best horse bath shampoo", "link": "https://www.google.com/search?sca_esv=7933640830a9b7d9&q=Best+horse+bath+shampoo&sa=X&ved=2ahUKEwjI9Ia9mpWKAxWDr-4BHaJUHt0Q1QJ6BAhgEAE", "block_position": 20}, {"query": "Horse Bathing Kit", "link": "https://www.google.com/search?sca_esv=7933640830a9b7d9&q=Horse+Bathing+Kit&sa=X&ved=2ahUKEwjI9Ia9mpWKAxWDr-4BHaJUHt0Q1QJ6BAhfEAE", "block_position": 20}, {"query": "How to bathe a horse for the first time", "link": "https://www.google.com/search?sca_esv=7933640830a9b7d9&q=How+to+bathe+a+horse+for+the+first+time&sa=X&ved=2ahUKEwjI9Ia9mpWKAxWDr-4BHaJUHt0Q1QJ6BAheEAE", "block_position": 20}, {"query": "How to wash a horse without a hose", "link": "https://www.google.com/search?sca_esv=7933640830a9b7d9&q=How+to+wash+a+horse+without+a+hose&sa=X&ved=2ahUKEwjI9Ia9mpWKAxWDr-4BHaJUHt0Q1QJ6BAhdEAE", "block_position": 20}, {"query": "How to wash a horses mane", "link": "https://www.google.com/search?sca_esv=7933640830a9b7d9&q=How+to+wash+a+horses+mane&sa=X&ved=2ahUKEwjI9Ia9mpWKAxWDr-4BHaJUHt0Q1QJ6BAhbEAE", "block_position": 20}, {"query": "How to get a horse used to a bath", "link": "https://www.google.com/search?sca_esv=7933640830a9b7d9&q=How+to+get+a+horse+used+to+a+bath&sa=X&ved=2ahUKEwjI9Ia9mpWKAxWDr-4BHaJUHt0Q1QJ6BAhaEAE", "block_position": 20}], "related_questions": [{"question": "What is the best way to wash a horse?", "answer": "Scrub deeply down to the skin; imagine you are steam-cleaning the skin, not the hair. Re-dunk your rag and rinse the dirt out as needed, usually between each section of face/neck, shoulder, barrel, hip, legs. One bucket of hot water usually lasts for one side of the horse; dump and refill for the other side.", "source": {"link": "https://forum.chronofhorse.com/t/any-way-to-get-a-horse-super-clean-without-bathing/779279", "displayed_link": "https://forum.chronofhorse.com \u203a any-way-to-get-a-hors...", "title": "Any way to get a horse super clean without bathing? - Hunter/Jumper - Chronicle Forums"}, "block_position": 2}, {"question": "How often should a horse have a bath?", "answer": "A weekly bath with an antimicrobial shampoo is probably the best choice for these wet days, skipping a few days between baths to avoid drying essential oils out of your horse's skin. That leads us to next factors to consider: the condition of your horse's coat and the type of shampoo.", "source": {"link": "https://equinefacilitydesign.com/equine-care/bathing-horse-best.htm", "displayed_link": "https://equinefacilitydesign.com \u203a equine-care \u203a bathing-...", "title": "Bathing Your Horse: How Often Is Best? - Equine Facility Design"}, "block_position": 2}, {"question": "What is the best horse shampoo?", "answer": "In this video, I explain why Head and Shoulders dandruff shampoo is the BEST horse shampoo for rain rot, scratches, cannon crud or any kind of skin issues. Not only is this a great budget-friendly option, it also leaves coats silky and soft and manes and tails clean and shiny.", "source": {"link": "https://www.youtube.com/watch?v=QIH9yNLYfwc", "displayed_link": "https://www.youtube.com \u203a watch", "title": "BEST HORSE SHAMPOO FOR RAIN ROT - YouTube"}, "block_position": 2}, {"question": "How long does it take a horse to dry after a bath?", "answer": "If your horse is clipped, the drying process may be relatively fast; if he has a full winter coat, it can take several hours for him to fully dry.", "source": {"link": "https://www.smartpakequine.com/learn-products/cold-weather-bathing", "displayed_link": "https://www.smartpakequine.com \u203a learn-products \u203a cold...", "title": "Cold Weather Bathing Best Practices for Horses in Winter"}, "block_position": 2}], "inline_videos": [{"position": 1, "title": "How to Bathe a Horse (Step-By-Step Guide)", "length": "12.45", "source": "YouTube \u00b7 Carmella Abel - Equine Helper", "date": "Sep 7, 2020", "date_utc": "2020-09-07T00:00:00.000Z", "link": "https://www.youtube.com/watch?v=DU_0a89KwHw", "block_position": 12}, {"position": 2, "title": "The Best Horse Grooming Products for Gray Horses", "length": "1.31", "source": "YouTube \u00b7 Professional Equine Grooms", "date": "Aug 21, 2024", "date_utc": "2024-08-21T00:00:00.000Z", "link": "https://www.youtube.com/watch?v=QXmMI7AS46E", "block_position": 12}, {"position": 3, "title": "How to bath a Horse for a Dressage Show? Tutorial with Olivia ...", "length": "18.04", "source": "YouTube \u00b7 FEI", "date": "Oct 24, 2019", "date_utc": "2019-10-24T00:00:00.000Z", "link": "https://www.youtube.com/watch?v=eE-Sx1pg6VY&pp=ygUOI2JhdGhpbmdob3JzZXM%3D", "block_position": 12}], "popular_products": [{"title": "Healthy Haircare Herbal Horse Wash", "price": {"symbol": "$", "value": 31.57}, "merchant": "Amazon", "position": 1, "rating": 4.6, "reviews": 10, "stores_that_sell": ["Amazon", "& more"], "block_position": 3}, {"title": "Insta-Hot Original Portable Equine Washing System", "price": {"symbol": "$", "value": 269.99}, "regular_price": {"symbol": "$", "value": 365}, "product_status": "26% OFF", "merchant": "Schneider Saddlery", "position": 2, "rating": 4.2, "reviews": 239, "stores_that_sell": ["Schneider Saddlery", "& more"], "block_position": 4}, {"title": "WAHL Dirty Beastie Horse Shampoo Body Wash for Thick Matted Coats 500ml / 5l - 5 Litre", "price": {"symbol": "$", "value": 35.05}, "merchant": "Cork Farm Equestrian", "position": 3, "rating": 4.8, "reviews": 164, "stores_that_sell": ["Cork Farm Equestrian"], "block_position": 5}, {"title": "Equiderma Neem Shampoo", "price": {"symbol": "$", "value": 24.99}, "merchant": "Dover Saddlery", "position": 4, "rating": 4.8, "reviews": 254, "stores_that_sell": ["Dover Saddlery", "& more"], "block_position": 6}, {"title": "Mane n Tail Shampoo", "price": {"symbol": "$", "value": 8.99}, "merchant": "Sally Beauty", "position": 5, "rating": 4.5, "reviews": 0, "stores_that_sell": ["Sally Beauty", "& more"], "block_position": 7}, {"title": "Insta-Hot Pro Portable Horse Washing System", "price": {"symbol": "$", "value": 704.99}, "merchant": "Amazon", "position": 6, "rating": 4.5, "reviews": 35, "stores_that_sell": ["Amazon", "& more"], "block_position": 8}, {"title": "Insta-Hot 2 Portable Horse Washing System with Cart", "price": {"symbol": "$", "value": 449.99}, "regular_price": {"symbol": "$", "value": 585}, "product_status": "23% OFF", "merchant": "Schneider Saddlery", "position": 7, "rating": 4.1, "reviews": 198, "stores_that_sell": ["Schneider Saddlery", "& more"], "block_position": 9}, {"title": "LeMieux Lavender Slosh", "price": {"symbol": "$", "value": 18.95}, "merchant": "Riding Warehouse", "position": 8, "rating": 4.3, "reviews": 4, "stores_that_sell": ["Riding Warehouse", "& more"], "block_position": 10}], "search_information": {"original_query_yields_zero_results": false, "total_results": 60400000}, "pagination": {"current": 12345678910, "next": "https://www.google.com/search?q=Best+horse+bath&sca_esv=7933640830a9b7d9&ei=ywJUZ4jjDoPfur8Poqn56A0&start=10&sa=N&sstk=ATObxK59qsiCyVQFqYXBxP_fDyfHlXydAsS9aEGaQvWsQiY0ps5pPJPXkgtT7PThexbxGLSqh-ZJh2skhOMz_1sjQoxIMPlGoofiUA&ved=2ahUKEwjI9Ia9mpWKAxWDr-4BHaJUHt0Q8NMDegQICxAW", "other_pages": [{"page": 2, "link": "https://www.google.com/search?q=Best+horse+bath&sca_esv=7933640830a9b7d9&ei=ywJUZ4jjDoPfur8Poqn56A0&start=10&sa=N&sstk=ATObxK59qsiCyVQFqYXBxP_fDyfHlXydAsS9aEGaQvWsQiY0ps5pPJPXkgtT7PThexbxGLSqh-ZJh2skhOMz_1sjQoxIMPlGoofiUA&ved=2ahUKEwjI9Ia9mpWKAxWDr-4BHaJUHt0Q8tMDegQICxAE"}, {"page": 3, "link": "https://www.google.com/search?q=Best+horse+bath&sca_esv=7933640830a9b7d9&ei=ywJUZ4jjDoPfur8Poqn56A0&start=20&sa=N&sstk=ATObxK59qsiCyVQFqYXBxP_fDyfHlXydAsS9aEGaQvWsQiY0ps5pPJPXkgtT7PThexbxGLSqh-ZJh2skhOMz_1sjQoxIMPlGoofiUA&ved=2ahUKEwjI9Ia9mpWKAxWDr-4BHaJUHt0Q8tMDegQICxAG"}, {"page": 4, "link": "https://www.google.com/search?q=Best+horse+bath&sca_esv=7933640830a9b7d9&ei=ywJUZ4jjDoPfur8Poqn56A0&start=30&sa=N&sstk=ATObxK59qsiCyVQFqYXBxP_fDyfHlXydAsS9aEGaQvWsQiY0ps5pPJPXkgtT7PThexbxGLSqh-ZJh2skhOMz_1sjQoxIMPlGoofiUA&ved=2ahUKEwjI9Ia9mpWKAxWDr-4BHaJUHt0Q8tMDegQICxAI"}, {"page": 5, "link": "https://www.google.com/search?q=Best+horse+bath&sca_esv=7933640830a9b7d9&ei=ywJUZ4jjDoPfur8Poqn56A0&start=40&sa=N&sstk=ATObxK59qsiCyVQFqYXBxP_fDyfHlXydAsS9aEGaQvWsQiY0ps5pPJPXkgtT7PThexbxGLSqh-ZJh2skhOMz_1sjQoxIMPlGoofiUA&ved=2ahUKEwjI9Ia9mpWKAxWDr-4BHaJUHt0Q8tMDegQICxAK"}, {"page": 6, "link": "https://www.google.com/search?q=Best+horse+bath&sca_esv=7933640830a9b7d9&ei=ywJUZ4jjDoPfur8Poqn56A0&start=50&sa=N&sstk=ATObxK59qsiCyVQFqYXBxP_fDyfHlXydAsS9aEGaQvWsQiY0ps5pPJPXkgtT7PThexbxGLSqh-ZJh2skhOMz_1sjQoxIMPlGoofiUA&ved=2ahUKEwjI9Ia9mpWKAxWDr-4BHaJUHt0Q8tMDegQICxAM"}, {"page": 7, "link": "https://www.google.com/search?q=Best+horse+bath&sca_esv=7933640830a9b7d9&ei=ywJUZ4jjDoPfur8Poqn56A0&start=60&sa=N&sstk=ATObxK59qsiCyVQFqYXBxP_fDyfHlXydAsS9aEGaQvWsQiY0ps5pPJPXkgtT7PThexbxGLSqh-ZJh2skhOMz_1sjQoxIMPlGoofiUA&ved=2ahUKEwjI9Ia9mpWKAxWDr-4BHaJUHt0Q8tMDegQICxAO"}, {"page": 8, "link": "https://www.google.com/search?q=Best+horse+bath&sca_esv=7933640830a9b7d9&ei=ywJUZ4jjDoPfur8Poqn56A0&start=70&sa=N&sstk=ATObxK59qsiCyVQFqYXBxP_fDyfHlXydAsS9aEGaQvWsQiY0ps5pPJPXkgtT7PThexbxGLSqh-ZJh2skhOMz_1sjQoxIMPlGoofiUA&ved=2ahUKEwjI9Ia9mpWKAxWDr-4BHaJUHt0Q8tMDegQICxAQ"}, {"page": 9, "link": "https://www.google.com/search?q=Best+horse+bath&sca_esv=7933640830a9b7d9&ei=ywJUZ4jjDoPfur8Poqn56A0&start=80&sa=N&sstk=ATObxK59qsiCyVQFqYXBxP_fDyfHlXydAsS9aEGaQvWsQiY0ps5pPJPXkgtT7PThexbxGLSqh-ZJh2skhOMz_1sjQoxIMPlGoofiUA&ved=2ahUKEwjI9Ia9mpWKAxWDr-4BHaJUHt0Q8tMDegQICxAS"}, {"page": 10, "link": "https://www.google.com/search?q=Best+horse+bath&sca_esv=7933640830a9b7d9&ei=ywJUZ4jjDoPfur8Poqn56A0&start=90&sa=N&sstk=ATObxK59qsiCyVQFqYXBxP_fDyfHlXydAsS9aEGaQvWsQiY0ps5pPJPXkgtT7PThexbxGLSqh-ZJh2skhOMz_1sjQoxIMPlGoofiUA&ved=2ahUKEwjI9Ia9mpWKAxWDr-4BHaJUHt0Q8tMDegQICxAU"}], "api_pagination": {"next": "https://api.serpwow.com/live/search?api_key=7B8A01FF4547497FA11B152D4400B2F9&q=Best%20horse%20bath&engine=google&google_domain=google.com&id=req0&page=2", "other_pages": [{"page": 2, "link": "https://api.serpwow.com/live/search?api_key=7B8A01FF4547497FA11B152D4400B2F9&q=Best%20horse%20bath&engine=google&google_domain=google.com&id=req0&page=2"}, {"page": 3, "link": "https://api.serpwow.com/live/search?api_key=7B8A01FF4547497FA11B152D4400B2F9&q=Best%20horse%20bath&engine=google&google_domain=google.com&id=req0&page=3"}, {"page": 4, "link": "https://api.serpwow.com/live/search?api_key=7B8A01FF4547497FA11B152D4400B2F9&q=Best%20horse%20bath&engine=google&google_domain=google.com&id=req0&page=4"}, {"page": 5, "link": "https://api.serpwow.com/live/search?api_key=7B8A01FF4547497FA11B152D4400B2F9&q=Best%20horse%20bath&engine=google&google_domain=google.com&id=req0&page=5"}, {"page": 6, "link": "https://api.serpwow.com/live/search?api_key=7B8A01FF4547497FA11B152D4400B2F9&q=Best%20horse%20bath&engine=google&google_domain=google.com&id=req0&page=6"}, {"page": 7, "link": "https://api.serpwow.com/live/search?api_key=7B8A01FF4547497FA11B152D4400B2F9&q=Best%20horse%20bath&engine=google&google_domain=google.com&id=req0&page=7"}, {"page": 8, "link": "https://api.serpwow.com/live/search?api_key=7B8A01FF4547497FA11B152D4400B2F9&q=Best%20horse%20bath&engine=google&google_domain=google.com&id=req0&page=8"}, {"page": 9, "link": "https://api.serpwow.com/live/search?api_key=7B8A01FF4547497FA11B152D4400B2F9&q=Best%20horse%20bath&engine=google&google_domain=google.com&id=req0&page=9"}, {"page": 10, "link": "https://api.serpwow.com/live/search?api_key=7B8A01FF4547497FA11B152D4400B2F9&q=Best%20horse%20bath&engine=google&google_domain=google.com&id=req0&page=10"}]}}}