{"request_info": {"success": true, "credits_used": 23, "credits_remaining": 77, "credits_used_this_request": 1}, "search_parameters": {"q": "Horse Bathing Kit", "engine": "google", "google_domain": "google.com"}, "search_metadata": {"created_at": "2024-12-07T08:09:32.791Z", "processed_at": "2024-12-07T08:09:35.727Z", "total_time_taken": 2.94, "engine_url": "https://www.google.com/search?q=Horse+Bathing+Kit", "html_url": "https://api.serpwow.com/live/search?api_key=7B8A01FF4547497FA11B152D4400B2F9&q=Horse+Bathing+Kit&engine=google&google_domain=google.com&output=html", "json_url": "https://api.serpwow.com/live/search?api_key=7B8A01FF4547497FA11B152D4400B2F9&q=Horse+Bathing+Kit&engine=google&google_domain=google.com&output=json"}, "organic_results": [{"position": 1, "block_position": 1, "title": "Horse Grooming & Bathing Supplies", "link": "https://www.amazon.com/horse-grooming-horse-bathing-supplies/b?ie=UTF8&node=8399155011", "domain": "www.amazon.com", "displayed_link": "https://www.amazon.com \u203a hor...", "snippet": "11 Piece Horse Bathing Supplies with Organize Bag, Horse Washing Full Body Kit, Including Sweat Scraper, Bath Sponge, Hoof Pick, Massage Comb", "prerender": false}, {"position": 2, "block_position": 2, "title": "Grooming Kits for Horses", "link": "https://www.discount-equestrian.co.uk/horse/grooming-tools/grooming-kits.html", "domain": "www.discount-equestrian.co.uk", "displayed_link": "https://www.discount-equestrian.co.uk \u203a ...", "snippet": "Discover our range of horse grooming kits from all the best brands. Shop grooming kits for horses and ponies at discounted prices online ...", "prerender": false}, {"position": 3, "block_position": 3, "title": "Horse Grooming Kits, Boxes & Bags - Horze", "link": "https://www.horze.eu/horse-grooming-kits--boxes-bags", "domain": "www.horze.eu", "displayed_link": "https://www.horze.eu \u203a horse-g...", "snippet": "Huge selection of Horse Grooming Kits, Boxes & Bags in stock \u2713 free delivery from \u20ac199 \u2713 top premium equestrian brands \u27a4 Purchase now!", "prerender": false}, {"position": 4, "block_position": 5, "title": "Grooming Kit Sets & Bags", "link": "https://www.premierequine.co.uk/collections/horse-grooming-kit-sets", "domain": "www.premierequine.co.uk", "displayed_link": "https://www.premierequine.co.uk \u203a ...", "snippet": "Premier Equine Grooming Kit Sets are available in four stunning colour combinations. Perfect for daily use or kept best for competitions. Shop now!", "prerender": false}, {"position": 5, "block_position": 6, "title": "Horse Grooming Kits", "link": "https://smartgrooming.com/collections/grooming-kits?srsltid=AfmBOoqxE_m9PSlTartNYHjBIMmRZV9mfEO_YqdTJdKUdgFqd9xd0rND", "domain": "smartgrooming.com", "displayed_link": "https://smartgrooming.com \u203a gr...", "snippet": "A grooming kit contains the brushes, sprays, shampoos and tools you need to groom your horse. Grooming is important for the health and turnout of your horse, as ...", "prerender": false}, {"position": 6, "block_position": 7, "title": "Horse Grooming Kits: Brush Sets, Totes", "link": "https://www.statelinetack.com/grooming-and-bathing/grooming-kits-and-totes/2353/?srsltid=AfmBOopE4PCW8E6UbffIjR_5OXaGL_z3slKehlmCW7EKaleiXZkeNcLw", "domain": "www.statelinetack.com", "displayed_link": "https://www.statelinetack.com \u203a ...", "snippet": "Organize all your horse grooming supplies with our assortment of low priced equine grooming kits. We carry everything from totes to ...", "prerender": false}, {"position": 7, "block_position": 8, "title": "Horse Grooming Kits - Naylors", "link": "https://www.naylors.com/horse/health-grooming/grooming-kit/", "domain": "www.naylors.com", "displayed_link": "https://www.naylors.com \u203a horse", "snippet": "Grooming kits, brushes and boxes at Naylors. Browse body brushes, dandy brushes, hoof picks and more. Free delivery on orders over \u00a350.", "prerender": false}, {"position": 8, "block_position": 9, "title": "Horse Grooming Kits", "link": "https://www.hairypony.com.au/collections/horse-grooming-kits?srsltid=AfmBOordsRF26ueA1993hKTKQHustplDvDLrr8LpXGn1YjoOHqAQQCG_", "domain": "www.hairypony.com.au", "displayed_link": "https://www.hairypony.com.au \u203a Collections", "snippet": "Explore our range of Hairy Pony Kits curated for any occasion. From wash bay essentials, to clipping & trimming, as well as show prep & ring-side must-haves ...", "prerender": false}, {"position": 9, "block_position": 10, "title": "Horse Bathing and Grooming Tools", "link": "https://www.sstack.com/horse-grooming-and-bathing-tools/c/4301/?srsltid=AfmBOooveSNG2-jeCrl8SEe-_-V-0f-JE0wLkwTiMFzPQ7Ku30xfvo2n", "domain": "www.sstack.com", "displayed_link": "https://www.sstack.com \u203a horse-grooming-and-bathing-t...", "snippet": "Shop our selection of premium horse bathing supplies and horse grooming tools and give every horse you own the proper bath day treatment.", "prerender": false, "sitelinks": {"inline": [{"title": "Horse Vacuum", "link": "https://www.sstack.com/horse-vacuum/c/4315/"}, {"title": "Insta-Hot Bathing", "link": "https://www.sstack.com/portable-hot-water-heater/c/4314/"}, {"title": "Horse Brushes and Curry Combs", "link": "https://www.sstack.com/horse-brush-and-curry-combs/c/4311/"}]}, "rich_snippet": {"top": {"detected_extensions": {}, "extensions": ["\u200eHorse Vacuum", "\u200eInsta-Hot Bathing", "\u200eHorse Brushes and Curry Combs"]}}}, {"position": 10, "block_position": 11, "title": "Grooming Kits, Brushes & Combs", "link": "https://harryhall.com/horse-equipment/horse-grooming/horse-brushes", "domain": "harryhall.com", "displayed_link": "https://harryhall.com \u203a horse-b...", "snippet": "Explore Harry Hall's range of horse grooming kits, perfect for pampering your horse or as a gift for horse lovers. Includes brushes, bags ...", "prerender": false}], "related_searches": [{"query": "Luxury horse Grooming Kit", "link": "https://www.google.com/search?sca_esv=7933640830a9b7d9&q=Luxury+horse+Grooming+Kit&sa=X&ved=2ahUKEwiyioO3mpWKAxVpGtAFHWmmDuAQ1QJ6BAg_EAE", "block_position": 12}, {"query": "Horse grooming kit essentials", "link": "https://www.google.com/search?sca_esv=7933640830a9b7d9&q=Horse+grooming+kit+essentials&sa=X&ved=2ahUKEwiyioO3mpWKAxVpGtAFHWmmDuAQ1QJ6BAg-EAE", "block_position": 12}, {"query": "Professional horse grooming Kit", "link": "https://www.google.com/search?sca_esv=7933640830a9b7d9&q=Professional+horse+grooming+Kit&sa=X&ved=2ahUKEwiyioO3mpWKAxVpGtAFHWmmDuAQ1QJ6BAg9EAE", "block_position": 12}, {"query": "Horse Grooming Kit LeMieux", "link": "https://www.google.com/search?sca_esv=7933640830a9b7d9&q=Horse+Grooming+Kit+LeMieux&sa=X&ved=2ahUKEwiyioO3mpWKAxVpGtAFHWmmDuAQ1QJ6BAg8EAE", "block_position": 12}, {"query": "Complete horse Grooming Kit", "link": "https://www.google.com/search?sca_esv=7933640830a9b7d9&q=Complete+horse+Grooming+Kit&sa=X&ved=2ahUKEwiyioO3mpWKAxVpGtAFHWmmDuAQ1QJ6BAg6EAE", "block_position": 12}, {"query": "Horse grooming Kit Decathlon", "link": "https://www.google.com/search?sca_esv=7933640830a9b7d9&q=Horse+grooming+Kit+Decathlon&sa=X&ved=2ahUKEwiyioO3mpWKAxVpGtAFHWmmDuAQ1QJ6BAg7EAE", "block_position": 12}], "related_questions": [{"question": "How often do you bathe a horse?", "answer": "At least once a day. Dirt, mud and debris on the coat can cause skin issues. At times where the pasture is pretty muddy, you may need to brush more than once daily. You may also need to brush more frequently in the spring when your horse sheds its winter coat. Plus, it's excellent bonding time with the horse.", "source": {"link": "https://www.quora.com/How-often-should-you-wash-horses", "displayed_link": "https://www.quora.com \u203a How-often-should-you-wash-h...", "title": "How often should you wash horses? - Quora"}, "block_position": 4}, {"question": "What do you need in a grooming kit for horses?", "answer": "A horse grooming kit should have a hard brush, a medium bristle brush, a soft bristle brush, a curry comb, a hoof pick and a mane and tail comb. Find out how to use horse grooming supplies with help from a horse riding teacher in this free video on horse grooming.", "source": {"link": "https://www.youtube.com/watch?v=jFaa8wclrds", "displayed_link": "https://www.youtube.com \u203a watch", "title": "What Is Needed in a Horse Grooming Kit - YouTube"}, "block_position": 4}, {"question": "How do you properly bathe a horse?", "answer": "Remember to start desensitizing the horse to water in the airspace around him first. Then start spraying it on his topline: withers and back, hindquarters and neck. Then introduce the water to the horse's back legs and then his front legs. And finally, turn the water pressure down and introduce the water to his face.", "source": {"link": "https://downunderhorsemanship.com/bundys-first-bath/", "displayed_link": "https://downunderhorsemanship.com \u203a bundys-first-bath", "title": "Bundy\u2019s First Bath | Downunder"}, "block_position": 4}, {"question": "Do you dry a horse after a bath?", "answer": "How do people dry a horse after a bath? A: After washing and rinsing you use a scraper on the skin to get the water out of the hair as much as possible. Then you usually let the horse air dry. If you let a horse out into a field after its bath, it will roll in the dirt whether still wet or already dry.", "source": {"link": "https://www.quora.com/How-do-people-dry-a-horse-after-a-bath", "displayed_link": "https://www.quora.com \u203a How-do-people-dry-a-horse-af...", "title": "How do people dry a horse after a bath? - Quora"}, "block_position": 4}], "search_information": {"original_query_yields_zero_results": false, "total_results": 14100000}, "pagination": {"current": 12345678910, "next": "https://www.google.com/search?q=Horse+Bathing+Kit&sca_esv=7933640830a9b7d9&ei=vgJUZ7KzJOm0wN4P6cy6gA4&start=10&sa=N&sstk=ATObxK6rthpBQoSINzElZVfcXmWsyGuIRwuLVM0ghRBiwbifNkTgA7mN0nVm2iqEcOev2GkyfqPDhR2DS-Nk-K0ynj45fWbU9ygcHg&ved=2ahUKEwiyioO3mpWKAxVpGtAFHWmmDuAQ8NMDegQICxAW", "other_pages": [{"page": 2, "link": "https://www.google.com/search?q=Horse+Bathing+Kit&sca_esv=7933640830a9b7d9&ei=vgJUZ7KzJOm0wN4P6cy6gA4&start=10&sa=N&sstk=ATObxK6rthpBQoSINzElZVfcXmWsyGuIRwuLVM0ghRBiwbifNkTgA7mN0nVm2iqEcOev2GkyfqPDhR2DS-Nk-K0ynj45fWbU9ygcHg&ved=2ahUKEwiyioO3mpWKAxVpGtAFHWmmDuAQ8tMDegQICxAE"}, {"page": 3, "link": "https://www.google.com/search?q=Horse+Bathing+Kit&sca_esv=7933640830a9b7d9&ei=vgJUZ7KzJOm0wN4P6cy6gA4&start=20&sa=N&sstk=ATObxK6rthpBQoSINzElZVfcXmWsyGuIRwuLVM0ghRBiwbifNkTgA7mN0nVm2iqEcOev2GkyfqPDhR2DS-Nk-K0ynj45fWbU9ygcHg&ved=2ahUKEwiyioO3mpWKAxVpGtAFHWmmDuAQ8tMDegQICxAG"}, {"page": 4, "link": "https://www.google.com/search?q=Horse+Bathing+Kit&sca_esv=7933640830a9b7d9&ei=vgJUZ7KzJOm0wN4P6cy6gA4&start=30&sa=N&sstk=ATObxK6rthpBQoSINzElZVfcXmWsyGuIRwuLVM0ghRBiwbifNkTgA7mN0nVm2iqEcOev2GkyfqPDhR2DS-Nk-K0ynj45fWbU9ygcHg&ved=2ahUKEwiyioO3mpWKAxVpGtAFHWmmDuAQ8tMDegQICxAI"}, {"page": 5, "link": "https://www.google.com/search?q=Horse+Bathing+Kit&sca_esv=7933640830a9b7d9&ei=vgJUZ7KzJOm0wN4P6cy6gA4&start=40&sa=N&sstk=ATObxK6rthpBQoSINzElZVfcXmWsyGuIRwuLVM0ghRBiwbifNkTgA7mN0nVm2iqEcOev2GkyfqPDhR2DS-Nk-K0ynj45fWbU9ygcHg&ved=2ahUKEwiyioO3mpWKAxVpGtAFHWmmDuAQ8tMDegQICxAK"}, {"page": 6, "link": "https://www.google.com/search?q=Horse+Bathing+Kit&sca_esv=7933640830a9b7d9&ei=vgJUZ7KzJOm0wN4P6cy6gA4&start=50&sa=N&sstk=ATObxK6rthpBQoSINzElZVfcXmWsyGuIRwuLVM0ghRBiwbifNkTgA7mN0nVm2iqEcOev2GkyfqPDhR2DS-Nk-K0ynj45fWbU9ygcHg&ved=2ahUKEwiyioO3mpWKAxVpGtAFHWmmDuAQ8tMDegQICxAM"}, {"page": 7, "link": "https://www.google.com/search?q=Horse+Bathing+Kit&sca_esv=7933640830a9b7d9&ei=vgJUZ7KzJOm0wN4P6cy6gA4&start=60&sa=N&sstk=ATObxK6rthpBQoSINzElZVfcXmWsyGuIRwuLVM0ghRBiwbifNkTgA7mN0nVm2iqEcOev2GkyfqPDhR2DS-Nk-K0ynj45fWbU9ygcHg&ved=2ahUKEwiyioO3mpWKAxVpGtAFHWmmDuAQ8tMDegQICxAO"}, {"page": 8, "link": "https://www.google.com/search?q=Horse+Bathing+Kit&sca_esv=7933640830a9b7d9&ei=vgJUZ7KzJOm0wN4P6cy6gA4&start=70&sa=N&sstk=ATObxK6rthpBQoSINzElZVfcXmWsyGuIRwuLVM0ghRBiwbifNkTgA7mN0nVm2iqEcOev2GkyfqPDhR2DS-Nk-K0ynj45fWbU9ygcHg&ved=2ahUKEwiyioO3mpWKAxVpGtAFHWmmDuAQ8tMDegQICxAQ"}, {"page": 9, "link": "https://www.google.com/search?q=Horse+Bathing+Kit&sca_esv=7933640830a9b7d9&ei=vgJUZ7KzJOm0wN4P6cy6gA4&start=80&sa=N&sstk=ATObxK6rthpBQoSINzElZVfcXmWsyGuIRwuLVM0ghRBiwbifNkTgA7mN0nVm2iqEcOev2GkyfqPDhR2DS-Nk-K0ynj45fWbU9ygcHg&ved=2ahUKEwiyioO3mpWKAxVpGtAFHWmmDuAQ8tMDegQICxAS"}, {"page": 10, "link": "https://www.google.com/search?q=Horse+Bathing+Kit&sca_esv=7933640830a9b7d9&ei=vgJUZ7KzJOm0wN4P6cy6gA4&start=90&sa=N&sstk=ATObxK6rthpBQoSINzElZVfcXmWsyGuIRwuLVM0ghRBiwbifNkTgA7mN0nVm2iqEcOev2GkyfqPDhR2DS-Nk-K0ynj45fWbU9ygcHg&ved=2ahUKEwiyioO3mpWKAxVpGtAFHWmmDuAQ8tMDegQICxAU"}], "api_pagination": {"next": "https://api.serpwow.com/live/search?api_key=7B8A01FF4547497FA11B152D4400B2F9&q=Horse%20Bathing%20Kit&engine=google&google_domain=google.com&id=req0&page=2", "other_pages": [{"page": 2, "link": "https://api.serpwow.com/live/search?api_key=7B8A01FF4547497FA11B152D4400B2F9&q=Horse%20Bathing%20Kit&engine=google&google_domain=google.com&id=req0&page=2"}, {"page": 3, "link": "https://api.serpwow.com/live/search?api_key=7B8A01FF4547497FA11B152D4400B2F9&q=Horse%20Bathing%20Kit&engine=google&google_domain=google.com&id=req0&page=3"}, {"page": 4, "link": "https://api.serpwow.com/live/search?api_key=7B8A01FF4547497FA11B152D4400B2F9&q=Horse%20Bathing%20Kit&engine=google&google_domain=google.com&id=req0&page=4"}, {"page": 5, "link": "https://api.serpwow.com/live/search?api_key=7B8A01FF4547497FA11B152D4400B2F9&q=Horse%20Bathing%20Kit&engine=google&google_domain=google.com&id=req0&page=5"}, {"page": 6, "link": "https://api.serpwow.com/live/search?api_key=7B8A01FF4547497FA11B152D4400B2F9&q=Horse%20Bathing%20Kit&engine=google&google_domain=google.com&id=req0&page=6"}, {"page": 7, "link": "https://api.serpwow.com/live/search?api_key=7B8A01FF4547497FA11B152D4400B2F9&q=Horse%20Bathing%20Kit&engine=google&google_domain=google.com&id=req0&page=7"}, {"page": 8, "link": "https://api.serpwow.com/live/search?api_key=7B8A01FF4547497FA11B152D4400B2F9&q=Horse%20Bathing%20Kit&engine=google&google_domain=google.com&id=req0&page=8"}, {"page": 9, "link": "https://api.serpwow.com/live/search?api_key=7B8A01FF4547497FA11B152D4400B2F9&q=Horse%20Bathing%20Kit&engine=google&google_domain=google.com&id=req0&page=9"}, {"page": 10, "link": "https://api.serpwow.com/live/search?api_key=7B8A01FF4547497FA11B152D4400B2F9&q=Horse%20Bathing%20Kit&engine=google&google_domain=google.com&id=req0&page=10"}]}}}