{"request_info": {"success": true, "credits_used": 26, "credits_remaining": 74, "credits_used_this_request": 1}, "search_parameters": {"q": "How to wash a horse without a hose", "engine": "google", "google_domain": "google.com"}, "search_metadata": {"created_at": "2024-12-07T08:09:50.621Z", "processed_at": "2024-12-07T08:09:52.671Z", "total_time_taken": 2.05, "engine_url": "https://www.google.com/search?q=How+to+wash+a+horse+without+a+hose", "html_url": "https://api.serpwow.com/live/search?api_key=7B8A01FF4547497FA11B152D4400B2F9&q=How+to+wash+a+horse+without+a+hose&engine=google&google_domain=google.com&output=html", "json_url": "https://api.serpwow.com/live/search?api_key=7B8A01FF4547497FA11B152D4400B2F9&q=How+to+wash+a+horse+without+a+hose&engine=google&google_domain=google.com&output=json"}, "organic_results": [{"position": 1, "block_position": 3, "title": "Bathing without a Hose!", "link": "https://forums.horseandhound.co.uk/threads/bathing-without-a-hose.792027/", "domain": "forums.horseandhound.co.uk", "displayed_link": "https://forums.horseandhound.co.uk \u203a ...", "snippet": "9 lug 2020 \u2014 For the main body, dilute shampoo in half a bucket of water and apply on a wet coat with a sponge. Massage well with a brush, rinse and scrape.", "prerender": false, "sitelinks": {"expanded": [{"title": "Washing legs? Hose them off everyday?", "link": "https://forums.horseandhound.co.uk/threads/washing-legs-hose-them-off-everyday.800897/", "snippet": "", "date_raw": "7 feb 2021", "date": "2021-02-07T00:00:00.000Z", "answers": null, "answers_raw": ""}, {"title": "Bathing/Washing horses in winter - best method?", "link": "https://forums.horseandhound.co.uk/threads/bathing-washing-horses-in-winter-best-method.410937/", "snippet": "", "date_raw": "26 ott 2010", "date": null, "answers": null, "answers_raw": ""}, {"title": "Getting ready for clipping without washing/hosing - can I?", "link": "https://forums.horseandhound.co.uk/threads/getting-ready-for-clipping-without-washing-hosing-can-i.577695/", "snippet": "", "date_raw": "25 nov 2012", "date": "2012-11-25T00:00:00.000Z", "answers": null, "answers_raw": ""}, {"title": "What temperature would you bath and not bath your horse ...", "link": "https://forums.horseandhound.co.uk/threads/what-temperature-would-you-bath-and-not-bath-your-horse-with-cold-water.817585/", "snippet": "", "date_raw": "21 apr 2022", "date": "2022-04-21T00:00:00.000Z", "answers": null, "answers_raw": ""}, {"title": "Altri risultati in forums.horseandhound.co.uk", "link": "/search?q=How+to+wash+a+horse+without+a+hose+site:forums.horseandhound.co.uk&sca_esv=7933640830a9b7d9&sa=X&ved=2ahUKEwi8xP6-mpWKAxUBZ0EAHbdABA0QrQIoBHoECB0QBQ", "snippet": "", "date_raw": "", "date": null, "answers": null, "answers_raw": null}]}, "sitelinks_search_box": false, "date": "9 lug 2020", "date_utc": "2020-07-09T00:00:00.000Z"}, {"position": 2, "block_position": 4, "title": "The Art of Washing Your Horse: A Step-by Step Guide", "link": "https://coromandelequine.com.au/blogs/news/the-art-of-washing-your-horse-a-step-by-step-guide?srsltid=AfmBOooqQmb1ahW4b-dCRZyOjEY-m-tGZdYao9hmZpLoeBzSsJz3rVrd", "domain": "coromandelequine.com.au", "displayed_link": "https://coromandelequine.com.au \u203a ...", "snippet": "24 giu 2024 \u2014 You'll need a hose with running water, a bucket, horse shampoo, horse conditioner, a sponge or soft brush, a sweat scraper, and towels.", "prerender": false, "date": "24 giu 2024", "date_utc": "2024-06-24T00:00:00.000Z"}, {"position": 3, "block_position": 5, "title": "How to Bathe a Horse: 13 Steps (with Pictures)", "link": "https://www.wikihow.com/Bathe-a-Horse", "domain": "www.wikihow.com", "displayed_link": "https://www.wikihow.com \u203a Ba...", "snippet": "If you need to bathe a horse, start by wiping its face with a wet sponge or rag. However, be careful not to squeeze water into its eyes, as that would probably ...", "prerender": false}, {"position": 4, "block_position": 6, "title": "How to Bathe Your Horse", "link": "https://www.farnam.com/stable-talk/how-to-bathe-your-horse", "domain": "www.farnam.com", "displayed_link": "https://www.farnam.com \u203a how-...", "snippet": "26 ott 2023 \u2014 If a wash stall isn't available, try to bathe your horse on ground slightly higher than the surrounding area to take advantage of the natural ...", "prerender": false, "date": "26 ott 2023", "date_utc": "2023-10-26T00:00:00.000Z"}, {"position": 5, "block_position": 7, "title": "Cold Weather Bathing Best Practices for Horses in Winter", "link": "https://www.smartpakequine.com/learn-products/cold-weather-bathing?srsltid=AfmBOoqDRcwWLw9KeHxzdxIA3TQdrpLTg924eO03tSQEi_U5AYrqr-Bz", "domain": "www.smartpakequine.com", "displayed_link": "https://www.smartpakequine.com \u203a ...", "snippet": "20 giu 2023 \u2014 Use a large sponge and a minimal amount of shampoo to wash the most crucial areas of your horse. The sponge-and-bucket method allows you to be ...", "prerender": false, "date": "20 giu 2023", "date_utc": "2023-06-20T00:00:00.000Z"}, {"position": 6, "block_position": 8, "title": "Tips to Make Bathing Your Horse Easier", "link": "https://mynewhorse.equusmagazine.com/2024/07/15/tips-to-make-bathing-your-horse-easier/", "domain": "mynewhorse.equusmagazine.com", "displayed_link": "https://mynewhorse.equusmagazine.com \u203a ...", "snippet": "15 lug 2024 \u2014 Before you even think about turning on the hose, give your horse a quick grooming. Use a curry comb to loosen dirt and debris from his coat. By ...", "prerender": false, "date": "15 lug 2024", "date_utc": "2024-07-15T00:00:00.000Z"}, {"position": 7, "block_position": 9, "title": "How to Wash A Horse (Complete Guide)", "link": "https://farmingparadise.com/how-wash-horse/", "domain": "farmingparadise.com", "displayed_link": "https://farmingparadise.com \u203a h...", "snippet": "14 mag 2021 \u2014 A sponge is a much more gentle way of getting the horse used to water than a hose. ... Some advise not using shampoo on the face, only water.", "prerender": false, "date": "14 mag 2021", "date_utc": "2021-05-14T00:00:00.000Z"}, {"position": 8, "block_position": 10, "title": "How to Give a Horse a Bath", "link": "https://vetericyn.com/blog/how-to-give-a-horse-a-bath/?srsltid=AfmBOop2MjmW5-jolvWYNMQ1wki7uyzafxDj2nNyBygvQ3sA0lFX7y7W", "domain": "vetericyn.com", "displayed_link": "https://vetericyn.com \u203a blog", "snippet": "30 mar 2021 \u2014 Use a sponge to scrub your horse's coat in a circular motion. Move from the neck to the rump, reapplying shampoo whenever you need it.", "prerender": false, "date": "30 mar 2021", "date_utc": "2021-03-30T00:00:00.000Z"}, {"position": 9, "block_position": 11, "title": "Bathing Your Horse in 8 Easy Steps", "link": "https://quarryviewbuildinggroup.com/bathing-your-horse-8-easy-steps/", "domain": "quarryviewbuildinggroup.com", "displayed_link": "https://quarryviewbuildinggroup.com \u203a ...", "snippet": "2 ago 2017 \u2014 Your horse may not be fond of having its face washed, so try to be gentle. Don't use a hose and avoid the shampoo. Use a sponge with clean water ...", "prerender": false, "date": "2 ago 2017", "date_utc": "2017-08-02T00:00:00.000Z"}], "related_searches": [{"query": "How to bathe a horse for the first time", "link": "https://www.google.com/search?sca_esv=7933640830a9b7d9&q=How+to+bathe+a+horse+for+the+first+time&sa=X&ved=2ahUKEwi8xP6-mpWKAxUBZ0EAHbdABA0Q1QJ6BAg-EAE", "block_position": 12}, {"query": "Horse Bathing Kit", "link": "https://www.google.com/search?sca_esv=7933640830a9b7d9&q=Horse+Bathing+Kit&sa=X&ved=2ahUKEwi8xP6-mpWKAxUBZ0EAHbdABA0Q1QJ6BAg_EAE", "block_position": 12}, {"query": "Is it ok to wash a horse with cold water", "link": "https://www.google.com/search?sca_esv=7933640830a9b7d9&q=Is+it+ok+to+wash+a+horse+with+cold+water&sa=X&ved=2ahUKEwi8xP6-mpWKAxUBZ0EAHbdABA0Q1QJ6BAg5EAE", "block_position": 12}, {"query": "How to wash your horse", "link": "https://www.google.com/search?sca_esv=7933640830a9b7d9&q=How+to+wash+your+horse&sa=X&ved=2ahUKEwi8xP6-mpWKAxUBZ0EAHbdABA0Q1QJ6BAg4EAE", "block_position": 12}, {"query": "How to bathe a horse wikihow", "link": "https://www.google.com/search?sca_esv=7933640830a9b7d9&q=How+to+bathe+a+horse+wikihow&sa=X&ved=2ahUKEwi8xP6-mpWKAxUBZ0EAHbdABA0Q1QJ6BAg3EAE", "block_position": 12}, {"query": "How often should you bathe a horse", "link": "https://www.google.com/search?sca_esv=7933640830a9b7d9&q=How+often+should+you+bathe+a+horse&sa=X&ved=2ahUKEwi8xP6-mpWKAxUBZ0EAHbdABA0Q1QJ6BAg2EAE", "block_position": 12}, {"query": "Horse bath meaning", "link": "https://www.google.com/search?sca_esv=7933640830a9b7d9&q=Horse+bath+meaning&sa=X&ved=2ahUKEwi8xP6-mpWKAxUBZ0EAHbdABA0Q1QJ6BAg1EAE", "block_position": 12}, {"query": "Mobile horse hot wash", "link": "https://www.google.com/search?sca_esv=7933640830a9b7d9&q=Mobile+horse+hot+wash&sa=X&ved=2ahUKEwi8xP6-mpWKAxUBZ0EAHbdABA0Q1QJ6BAg0EAE", "block_position": 12}], "related_questions": [{"question": "How to clean a horse without washing?", "answer": "\"To remove manure and other dirty spots without giving a full bath, use a spray-on-shampoo product,\" she say. \"This is really good for urine, manure and sweat stains; it's especially helpful for horse with white points.", "source": {"link": "https://www.farnam.com/stable-talk/winter-grooming-tips#:~:text=%22To%20remove%20manure%20and%20other,for%20horse%20with%20white%20points.", "displayed_link": "https://www.farnam.com \u203a stable-talk \u203a winter-grooming...", "title": "Winter Grooming Tips - Farnam"}, "block_position": 2}, {"question": "How to bathe a horse without water?", "answer": "You can give your horse a sponge bath using the same techniques used for the hot-towel bath. The best sponge to use is a large, coarse one. If your horse has worked up a good sweat, the sweaty areas may foam as you rub them.", "source": {"link": "https://www.horseillustrated.com/equine-university-horse-college-horse-grooming-college-session-100-winter-bathing-alternatives-article/amp#:~:text=You%20can%20give%20your%20horse,foam%20as%20you%20rub%20them.", "displayed_link": "https://www.horseillustrated.com \u203a amp", "title": "Cold Weather Bathing Alternatives - Horse Illustrated"}, "block_position": 2}, {"question": "What is the best thing to wash a horse with?", "answer": "DO: Use a gentle soap. If you want to be fancy: I like Corona shampoo or Effol Shampoo. They gently wash away dirt / grease without drying the hair & they both rinse easily. If you need to be economical: Dawn dish soap does the same thing... washes away dirt / grease without taking the moisture out of the hair.", "source": {"link": "http://www.kentuckyequestrian.com/main.cfm?action=articles&sub=view&ID=1147", "displayed_link": "http://www.kentuckyequestrian.com \u203a ...", "title": "Kentucky Equestrian Articles"}, "block_position": 2}, {"question": "When should you not bathe a horse?", "answer": "horses should only be bathed in warm weather or when they have a warm area to dry off and warm up. However, a horse should at a very minimum have any sweat rinsed off it's body when it's noticed, both from being ridden or running around in a paddock.", "source": {"link": "https://www.quora.com/Is-bathing-a-horse-necessary", "displayed_link": "https://www.quora.com \u203a Is-bathing-a-horse-necessary", "title": "Is bathing a horse necessary? - Quora"}, "block_position": 2}], "answer_box": {"answer_box_type": 18, "answers": [{"source": {"link": "https://www.horseandhound.co.uk/features/how-to-bath-a-horse-step-by-step-guide-58263#:~:text=If%20he%20will%20not%20take,dried%2C%20ideally%20in%20the%20sunshine.", "title": "How to bath a horse correctly: a step-by-step guide", "displayed_link": "https://www.horseandhound.co.uk \u203a Features"}, "answer": "12 gen 2022"}], "block_position": 1}, "search_information": {"original_query_yields_zero_results": false, "total_results": 8380000}, "pagination": {"current": 12345678910, "next": "https://www.google.com/search?q=How+to+wash+a+horse+without+a+hose&sca_esv=7933640830a9b7d9&ei=zwJUZ_ygEoHOhbIPt4GRaA&start=10&sa=N&sstk=ATObxK6jfrD0sixxSQgHzWYYmswD2nHpaPVpZfRMUFXKq-OlpmXJnB-nXj-Ho1VmHxKrWpHIgg4m6oEaUHuqsXkaqqWFjLjYp3HMXg&ved=2ahUKEwi8xP6-mpWKAxUBZ0EAHbdABA0Q8NMDegQICxAW", "other_pages": [{"page": 2, "link": "https://www.google.com/search?q=How+to+wash+a+horse+without+a+hose&sca_esv=7933640830a9b7d9&ei=zwJUZ_ygEoHOhbIPt4GRaA&start=10&sa=N&sstk=ATObxK6jfrD0sixxSQgHzWYYmswD2nHpaPVpZfRMUFXKq-OlpmXJnB-nXj-Ho1VmHxKrWpHIgg4m6oEaUHuqsXkaqqWFjLjYp3HMXg&ved=2ahUKEwi8xP6-mpWKAxUBZ0EAHbdABA0Q8tMDegQICxAE"}, {"page": 3, "link": "https://www.google.com/search?q=How+to+wash+a+horse+without+a+hose&sca_esv=7933640830a9b7d9&ei=zwJUZ_ygEoHOhbIPt4GRaA&start=20&sa=N&sstk=ATObxK6jfrD0sixxSQgHzWYYmswD2nHpaPVpZfRMUFXKq-OlpmXJnB-nXj-Ho1VmHxKrWpHIgg4m6oEaUHuqsXkaqqWFjLjYp3HMXg&ved=2ahUKEwi8xP6-mpWKAxUBZ0EAHbdABA0Q8tMDegQICxAG"}, {"page": 4, "link": "https://www.google.com/search?q=How+to+wash+a+horse+without+a+hose&sca_esv=7933640830a9b7d9&ei=zwJUZ_ygEoHOhbIPt4GRaA&start=30&sa=N&sstk=ATObxK6jfrD0sixxSQgHzWYYmswD2nHpaPVpZfRMUFXKq-OlpmXJnB-nXj-Ho1VmHxKrWpHIgg4m6oEaUHuqsXkaqqWFjLjYp3HMXg&ved=2ahUKEwi8xP6-mpWKAxUBZ0EAHbdABA0Q8tMDegQICxAI"}, {"page": 5, "link": "https://www.google.com/search?q=How+to+wash+a+horse+without+a+hose&sca_esv=7933640830a9b7d9&ei=zwJUZ_ygEoHOhbIPt4GRaA&start=40&sa=N&sstk=ATObxK6jfrD0sixxSQgHzWYYmswD2nHpaPVpZfRMUFXKq-OlpmXJnB-nXj-Ho1VmHxKrWpHIgg4m6oEaUHuqsXkaqqWFjLjYp3HMXg&ved=2ahUKEwi8xP6-mpWKAxUBZ0EAHbdABA0Q8tMDegQICxAK"}, {"page": 6, "link": "https://www.google.com/search?q=How+to+wash+a+horse+without+a+hose&sca_esv=7933640830a9b7d9&ei=zwJUZ_ygEoHOhbIPt4GRaA&start=50&sa=N&sstk=ATObxK6jfrD0sixxSQgHzWYYmswD2nHpaPVpZfRMUFXKq-OlpmXJnB-nXj-Ho1VmHxKrWpHIgg4m6oEaUHuqsXkaqqWFjLjYp3HMXg&ved=2ahUKEwi8xP6-mpWKAxUBZ0EAHbdABA0Q8tMDegQICxAM"}, {"page": 7, "link": "https://www.google.com/search?q=How+to+wash+a+horse+without+a+hose&sca_esv=7933640830a9b7d9&ei=zwJUZ_ygEoHOhbIPt4GRaA&start=60&sa=N&sstk=ATObxK6jfrD0sixxSQgHzWYYmswD2nHpaPVpZfRMUFXKq-OlpmXJnB-nXj-Ho1VmHxKrWpHIgg4m6oEaUHuqsXkaqqWFjLjYp3HMXg&ved=2ahUKEwi8xP6-mpWKAxUBZ0EAHbdABA0Q8tMDegQICxAO"}, {"page": 8, "link": "https://www.google.com/search?q=How+to+wash+a+horse+without+a+hose&sca_esv=7933640830a9b7d9&ei=zwJUZ_ygEoHOhbIPt4GRaA&start=70&sa=N&sstk=ATObxK6jfrD0sixxSQgHzWYYmswD2nHpaPVpZfRMUFXKq-OlpmXJnB-nXj-Ho1VmHxKrWpHIgg4m6oEaUHuqsXkaqqWFjLjYp3HMXg&ved=2ahUKEwi8xP6-mpWKAxUBZ0EAHbdABA0Q8tMDegQICxAQ"}, {"page": 9, "link": "https://www.google.com/search?q=How+to+wash+a+horse+without+a+hose&sca_esv=7933640830a9b7d9&ei=zwJUZ_ygEoHOhbIPt4GRaA&start=80&sa=N&sstk=ATObxK6jfrD0sixxSQgHzWYYmswD2nHpaPVpZfRMUFXKq-OlpmXJnB-nXj-Ho1VmHxKrWpHIgg4m6oEaUHuqsXkaqqWFjLjYp3HMXg&ved=2ahUKEwi8xP6-mpWKAxUBZ0EAHbdABA0Q8tMDegQICxAS"}, {"page": 10, "link": "https://www.google.com/search?q=How+to+wash+a+horse+without+a+hose&sca_esv=7933640830a9b7d9&ei=zwJUZ_ygEoHOhbIPt4GRaA&start=90&sa=N&sstk=ATObxK6jfrD0sixxSQgHzWYYmswD2nHpaPVpZfRMUFXKq-OlpmXJnB-nXj-Ho1VmHxKrWpHIgg4m6oEaUHuqsXkaqqWFjLjYp3HMXg&ved=2ahUKEwi8xP6-mpWKAxUBZ0EAHbdABA0Q8tMDegQICxAU"}], "api_pagination": {"next": "https://api.serpwow.com/live/search?api_key=7B8A01FF4547497FA11B152D4400B2F9&q=How%20to%20wash%20a%20horse%20without%20a%20hose&engine=google&google_domain=google.com&id=req0&page=2", "other_pages": [{"page": 2, "link": "https://api.serpwow.com/live/search?api_key=7B8A01FF4547497FA11B152D4400B2F9&q=How%20to%20wash%20a%20horse%20without%20a%20hose&engine=google&google_domain=google.com&id=req0&page=2"}, {"page": 3, "link": "https://api.serpwow.com/live/search?api_key=7B8A01FF4547497FA11B152D4400B2F9&q=How%20to%20wash%20a%20horse%20without%20a%20hose&engine=google&google_domain=google.com&id=req0&page=3"}, {"page": 4, "link": "https://api.serpwow.com/live/search?api_key=7B8A01FF4547497FA11B152D4400B2F9&q=How%20to%20wash%20a%20horse%20without%20a%20hose&engine=google&google_domain=google.com&id=req0&page=4"}, {"page": 5, "link": "https://api.serpwow.com/live/search?api_key=7B8A01FF4547497FA11B152D4400B2F9&q=How%20to%20wash%20a%20horse%20without%20a%20hose&engine=google&google_domain=google.com&id=req0&page=5"}, {"page": 6, "link": "https://api.serpwow.com/live/search?api_key=7B8A01FF4547497FA11B152D4400B2F9&q=How%20to%20wash%20a%20horse%20without%20a%20hose&engine=google&google_domain=google.com&id=req0&page=6"}, {"page": 7, "link": "https://api.serpwow.com/live/search?api_key=7B8A01FF4547497FA11B152D4400B2F9&q=How%20to%20wash%20a%20horse%20without%20a%20hose&engine=google&google_domain=google.com&id=req0&page=7"}, {"page": 8, "link": "https://api.serpwow.com/live/search?api_key=7B8A01FF4547497FA11B152D4400B2F9&q=How%20to%20wash%20a%20horse%20without%20a%20hose&engine=google&google_domain=google.com&id=req0&page=8"}, {"page": 9, "link": "https://api.serpwow.com/live/search?api_key=7B8A01FF4547497FA11B152D4400B2F9&q=How%20to%20wash%20a%20horse%20without%20a%20hose&engine=google&google_domain=google.com&id=req0&page=9"}, {"page": 10, "link": "https://api.serpwow.com/live/search?api_key=7B8A01FF4547497FA11B152D4400B2F9&q=How%20to%20wash%20a%20horse%20without%20a%20hose&engine=google&google_domain=google.com&id=req0&page=10"}]}}}