{"request_info":{"success":true,"credits_used":22,"credits_remaining":78,"credits_used_this_request":1},"search_parameters":{"q":"horse bath","engine":"google","google_domain":"google.com","page":"1","num":"10"},"search_metadata":{"created_at":"2024-12-07T08:09:27.887Z","processed_at":"2024-12-07T08:09:31.762Z","total_time_taken":3.88,"engine_url":"https://www.google.com/search?q=horse+bath&num=10","html_url":"https://api.serpwow.com/live/search?api_key=7B8A01FF4547497FA11B152D4400B2F9&q=horse+bath&engine=google&google_domain=google.com&page=1&num=10&output=html","json_url":"https://api.serpwow.com/live/search?api_key=7B8A01FF4547497FA11B152D4400B2F9&q=horse+bath&engine=google&google_domain=google.com&page=1&num=10&output=json"},"organic_results":[{"position":1,"block_position":2,"title":"Is the term horsebath common where you are? What does ...","link":"https://www.reddit.com/r/AskUK/comments/10f51ms/is_the_term_horsebath_common_where_you_are_what/","domain":"www.reddit.com","displayed_link":"20+ comments  ·  1 year ago","snippet":"It's deffo \"whore's\", it means a quick freshen up in the key areas. As opposed to a horse bath, which is getting hosed down in the shed by a ...","prerender":false,"sitelinks":{"expanded":[{"title":"Bathing a horse - Reddit","link":"https://www.reddit.com/r/Horses/comments/ty4am3/bathing_a_horse/","snippet":"","date_raw":"Apr 7, 2022","date":"2022-04-07T00:00:00.000Z","answers":null,"answers_raw":""},{"title":"How often is too often to bathe a horse with shampoo ... - Reddit","link":"https://www.reddit.com/r/Equestrian/comments/1dzx2ri/how_often_is_too_often_to_bathe_a_horse_with/","snippet":"","date_raw":"Jul 10, 2024","date":"2024-07-10T00:00:00.000Z","answers":null,"answers_raw":""},{"title":"What temperature is warm enough to give a horse a bath?","link":"https://www.reddit.com/r/Equestrian/comments/4fo7w5/what_temperature_is_warm_enough_to_give_a_horse_a/","snippet":"","date_raw":"Apr 21, 2016","date":"2016-04-21T00:00:00.000Z","answers":null,"answers_raw":""},{"title":"Bath time for horse : r/oddlysatisfying - Reddit","link":"https://www.reddit.com/r/oddlysatisfying/comments/r3k751/bath_time_for_horse/","snippet":"","date_raw":"Nov 27, 2021","date":"2021-11-27T00:00:00.000Z","answers":null,"answers_raw":""},{"title":"More results from www.reddit.com","link":"/search?q=horse+bath+site:www.reddit.com&sca_esv=7933640830a9b7d9&sa=X&ved=2ahUKEwimkN20mpWKAxX_RTABHV8oDBYQrQIoBHoECBcQBQ","snippet":"","date_raw":"","date":null,"answers":null,"answers_raw":null}]},"sitelinks_search_box":false},{"position":2,"block_position":4,"title":"How to bath a horse correctly: a step-by-step guide","link":"https://www.horseandhound.co.uk/features/how-to-bath-a-horse-step-by-step-guide-58263","domain":"www.horseandhound.co.uk","displayed_link":"https://www.horseandhound.co.uk › Features","snippet":"Jan 12, 2022 — Wet the horse thoroughly before applying shampoo as it is easier to use a soapy sponge on a wet coat. Add shampoo to the bucket of water as per ...","prerender":false,"date":"Jan 12, 2022","date_utc":"2022-01-12T00:00:00.000Z"},{"position":3,"block_position":7,"title":"How to Bathe Your Horse","link":"https://www.farnam.com/stable-talk/how-to-bathe-your-horse","domain":"www.farnam.com","displayed_link":"https://www.farnam.com › Stable Talk","snippet":"Oct 26, 2023 — First, Tackle the Obvious · Check the Water Temperature · Start the Bath · Now Add Shampoo · Rinse · Clean the Face · Dry with a Sweat Scraper.","prerender":false,"date":"Oct 26, 2023","date_utc":"2023-10-26T00:00:00.000Z"},{"position":4,"block_position":8,"title":"Step-by-Step Guide to Giving Your Horse a Bath","link":"https://www.breeches.com/blogs/blog/guide-to-horse-bath-and-horse-bathing-supplies?srsltid=AfmBOoot_UdOYa3IBOBOLoJeurA88rec2ifJoSh1UUtQIdxx02p28xP4","domain":"www.breeches.com","displayed_link":"https://www.breeches.com › blogs › blog › guide-to-ho...","snippet":"Jul 26, 2022 — Step-by-Step Guide to Giving Your Horse a Bath · Step 1: Make the Wash Stall a Happy Place · Step 2: Gather Up Your Horse Bathing Supplies.","prerender":false,"date":"Jul 26, 2022","date_utc":"2022-07-26T00:00:00.000Z"},{"position":5,"block_position":9,"title":"Tips for Horse Bathing","link":"https://www.doversaddlery.com/tips-for-horse-bathing-page-1/a/494/?srsltid=AfmBOoqp4LfWJuDz92N6Ys57tF88PiEcS7vV9EFuEVq4GDQnAaQ7cEbM","domain":"www.doversaddlery.com","displayed_link":"https://www.doversaddlery.com › tips-for-horse-bathing-...","snippet":"Use warm water to bathe your horse. If your barn or show ground does not have warm running water, consider using a water heater. Lightweight and easy to use, ...","prerender":false},{"position":6,"block_position":10,"title":"How to Give a Horse a Bath","link":"https://vetericyn.com/blog/how-to-give-a-horse-a-bath/?srsltid=AfmBOoqZ1xWph6WxutkR7ht2qEdLZbdSnk-RZBDQiTB7jIrq5Ge-VmBu","domain":"vetericyn.com","displayed_link":"https://vetericyn.com › blog › how-to-give-a-horse-a-b...","snippet":"Mar 30, 2021 — Wash the legs, belly, genital area, and behind the elbows. Use a different sponge reserved for washing under the tail and between the hind legs.","prerender":false,"date":"Mar 30, 2021","date_utc":"2021-03-30T00:00:00.000Z"},{"position":7,"block_position":11,"title":"Horse Bathing: How Much is Too Much?","link":"https://www.smartpakequine.com/learn-products/bathing-how-much-is-too-much?srsltid=AfmBOorLpZE8Nsa18tgc3a8hnGCuqcrlbgUbbQM6d7SMWwaWjeWvc3gp","domain":"www.smartpakequine.com","displayed_link":"https://www.smartpakequine.com › learn-products › bat...","snippet":"Jun 20, 2023 — Washing your horse with shampoo daily will strip natural oils from the coat, leaving it dull and brittle. Leaving sweat marks can lead to dry, irritated skin.","prerender":false,"date":"Jun 20, 2023","date_utc":"2023-06-20T00:00:00.000Z"},{"position":8,"block_position":12,"title":"Tips on giving my horse a bath.","link":"https://www.horseforum.com/threads/tips-on-giving-my-horse-a-bath.803755/","domain":"www.horseforum.com","displayed_link":"https://www.horseforum.com › threads › tips-on-giving...","snippet":"May 7, 2019 — Start low, at her feet and legs. See how she does...then work your way up, gently. Use a soft setting on the nozzle. Get a good shampoo. I use a ...","prerender":false,"date":"May 7, 2019","date_utc":"2019-05-07T00:00:00.000Z"}],"search_refinement":{"items":[{"title":"Meaning","link":"https://www.google.com/search?sca_esv=7933640830a9b7d9&q=Horse+bath+meaning&uds=ADvngMjcH0KdF7qGWtwTBrP0nt7dFkBLZ55gGyeTF3ustRBQszCQ6a_9HTGqxZ73vHU7oVe-CDUMUupSPJiWZ3E864-8eJuQUXfe0iMWxF9PsRQ2tBkU7C4JtWeRKzfxftNAYUhORWQLU-sBs78YlOeEx2TxCL6O3Q&sa=X&ved=2ahUKEwimkN20mpWKAxX_RTABHV8oDBYQxKsJegQIIBAB&ictx=0","block_position":1},{"title":"Tips","link":"https://www.google.com/search?sca_esv=7933640830a9b7d9&q=Bath+horse+tips&uds=ADvngMjcH0KdF7qGWtwTBrP0nt7daGtYstpXpxPF1kru9OHbjoLbWTPesZo1nvGoI4bcg3_tTDvDcEC5F8u3qdr0TqkgrfXM1ax5dDAIr6v-wUpjqCMpObMJu6Hg89S5JIQjKgx5Yy3B3bsysEK8op5Ekp4MlDaTMQ&sa=X&ved=2ahUKEwimkN20mpWKAxX_RTABHV8oDBYQxKsJegQIHBAB&ictx=0","block_position":1},{"title":"Results","link":"https://www.google.com/search?sca_esv=7933640830a9b7d9&q=Bath+horse+results&uds=ADvngMjcH0KdF7qGWtwTBrP0nt7dFkBLZ55gGyeTF3ustRBQszCQ6a_9HTGqxZ73vHU7oVf1cFDjgJsxZNxnW23x3hNshZ2RoAB0NmrXXZoNkDmW0kaVeOPDFUwE8UcvpVlsHIiQXCvNhZPV0Lkae6ZJzPzwkFfVmQ&sa=X&ved=2ahUKEwimkN20mpWKAxX_RTABHV8oDBYQxKsJegQIFBAB&ictx=0","block_position":1},{"title":"Soap","link":"https://www.google.com/search?sca_esv=7933640830a9b7d9&q=Horse+bath+soap&uds=ADvngMjcH0KdF7qGWtwTBrP0nt7daGtYstpXpxPF1kru9OHbjoLbWTPesZo1nvGoI4bcg38fEyVstRJ48jd9E4x5pU0EuZblPmUsQO3-YqeCp_9BWHrAgeCShp-mANsiYwn9i46voyiawOBs9Gt0CZw3O6S8XjpYhg&sa=X&ved=2ahUKEwimkN20mpWKAxX_RTABHV8oDBYQxKsJegQIFhAB&ictx=0","block_position":1},{"title":"Kit","link":"https://www.google.com/search?sca_esv=7933640830a9b7d9&q=Horse+Bathing+Kit&uds=ADvngMjcH0KdF7qGWtwTBrP0nt7dJKTJ99uVgWVcr-vzrAPkVaZs_2Q4QU64S-vQzili_6-E4HNYF3Acy7E9IiOC3R-eq-ZXGlE0p7L7UiiCElu921qvbb_2_j2Pv1J58fGtd2EJKP-MjUpzoZzOH-0mlL40mm7GDw&sa=X&ved=2ahUKEwimkN20mpWKAxX_RTABHV8oDBYQxKsJegQIFRAB&ictx=0","block_position":1}]},"related_searches":[{"query":"Horse Bathing Kit","link":"https://www.google.com/search?sca_esv=7933640830a9b7d9&q=Horse+Bathing+Kit&sa=X&ved=2ahUKEwimkN20mpWKAxX_RTABHV8oDBYQ1QJ6BAhSEAE","block_position":13},{"query":"How to bathe a horse for the first time","link":"https://www.google.com/search?sca_esv=7933640830a9b7d9&q=How+to+bathe+a+horse+for+the+first+time&sa=X&ved=2ahUKEwimkN20mpWKAxX_RTABHV8oDBYQ1QJ6BAhREAE","block_position":13},{"query":"Best horse bath","link":"https://www.google.com/search?sca_esv=7933640830a9b7d9&q=Best+horse+bath&sa=X&ved=2ahUKEwimkN20mpWKAxX_RTABHV8oDBYQ1QJ6BAhTEAE","block_position":13},{"query":"How to wash a horse without a hose","link":"https://www.google.com/search?sca_esv=7933640830a9b7d9&q=How+to+wash+a+horse+without+a+hose&sa=X&ved=2ahUKEwimkN20mpWKAxX_RTABHV8oDBYQ1QJ6BAhOEAE","block_position":13},{"query":"Is it ok to wash a horse with cold water","link":"https://www.google.com/search?sca_esv=7933640830a9b7d9&q=Is+it+ok+to+wash+a+horse+with+cold+water&sa=X&ved=2ahUKEwimkN20mpWKAxX_RTABHV8oDBYQ1QJ6BAhGEAE","block_position":13},{"query":"How to get a horse used to a bath","link":"https://www.google.com/search?sca_esv=7933640830a9b7d9&q=How+to+get+a+horse+used+to+a+bath&sa=X&ved=2ahUKEwimkN20mpWKAxX_RTABHV8oDBYQ1QJ6BAg_EAE","block_position":13},{"query":"Horse Shampoo","link":"https://www.google.com/search?sca_esv=7933640830a9b7d9&q=Horse+Shampoo&sa=X&ved=2ahUKEwimkN20mpWKAxX_RTABHV8oDBYQ1QJ6BAg-EAE","block_position":13},{"query":"How to wash a horses mane","link":"https://www.google.com/search?sca_esv=7933640830a9b7d9&q=How+to+wash+a+horses+mane&sa=X&ved=2ahUKEwimkN20mpWKAxX_RTABHV8oDBYQ1QJ6BAg1EAE","block_position":13}],"related_questions":[{"question":"How often should a horse be bathed?","answer":"A weekly bath with an antimicrobial shampoo is probably the best choice for these wet days, skipping a few days between baths to avoid drying essential oils out of your horse's skin. That leads us to next factors to consider: the condition of your horse's coat and the type of shampoo.","source":{"link":"https://equinefacilitydesign.com/equine-care/bathing-horse-best.htm#:~:text=A%20weekly%20bath%20with%20an,and%20the%20type%20of%20shampoo.","displayed_link":"https://equinefacilitydesign.com › equine-care › bathing-...","title":"Bathing Your Horse: How Often Is Best? - Equine Facility Design"},"block_position":3},{"question":"What is the best thing to wash a horse with?","answer":"DO: Use a gentle soap. If you want to be fancy: I like Corona shampoo or Effol Shampoo. They gently wash away dirt / grease without drying the hair & they both rinse easily. If you need to be economical: Dawn dish soap does the same thing... washes away dirt / grease without taking the moisture out of the hair.","source":{"link":"http://www.kentuckyequestrian.com/main.cfm?action=articles&sub=view&ID=1147","displayed_link":"http://www.kentuckyequestrian.com › ...","title":"Kentucky Equestrian Articles"},"block_position":3},{"question":"What are the reasons for bathing a horse?","answer":"Removing dried sweat, dirt and debris is necessary, especially after riding, because foreign material between the horse and the saddle can damage the skin causing infection and pain. Grooming even without bathing can remove some of this debris.","source":{"link":"https://veterinarypartner.vin.com/default.aspx?pid=19239&catId=102906&id=10115770&ind=1494&objTypeID=1007#:~:text=Removing%20dried%20sweat%2C%20dirt%20and,remove%20some%20of%20this%20debris.","displayed_link":"https://veterinarypartner.vin.com › ...","title":"How Often Should you Bathe your Horse? - Veterinary Partner - VIN"},"block_position":3},{"question":"Can you put a horse out wet?","answer":"It is an old wives tale, really don't let it worry you, horses don't care about being wet and being ridden...or driven for that matter, as long as their saddle area and girth area are clean wet doesn't matter.","source":{"link":"https://www.newrider.com/threads/riding-a-wet-horse.90935/","displayed_link":"https://www.newrider.com › threads › riding-a-wet-horse","title":"Riding a wet horse | New Rider Forum"},"block_position":3}],"inline_videos":[{"position":1,"title":"How to Bathe a Horse (Step-By-Step Guide)","length":"12.45","source":"YouTube · Carmella Abel - Equine Helper","date":"Sep 7, 2020","date_utc":"2020-09-07T00:00:00.000Z","link":"https://www.youtube.com/watch?v=DU_0a89KwHw","block_position":6},{"position":2,"title":"How to bath a Horse for a Dressage Show? Tutorial with Olivia ...","length":"18.04","source":"YouTube · FEI","date":"Oct 25, 2019","date_utc":"2019-10-25T00:00:00.000Z","link":"https://www.youtube.com/watch?v=eE-Sx1pg6VY&pp=ygUOI2JhdGhpbmdob3JzZXM%3D","block_position":6},{"position":3,"title":"How To Wash A Horse For Beginners! (Only 7 Steps)","length":"4.09","source":"YouTube · Horse Perfect","date":"Jul 19, 2022","date_utc":"2022-07-19T00:00:00.000Z","link":"https://www.youtube.com/watch?v=fTxY0b4LcDM","block_position":6}],"inline_images":[{"title":"Horse Bath by LeAnne Sowa","image":"data:image/gif;base64,R0lGODlhAQABAIAAAP///////yH5BAEKAAEALAAAAAABAAEAAAICTAEAOw==","link":"https://leanne-sowa.pixels.com/featured/horse-bath-leanne-sowa.html","block_position":5},{"title":"How To Bathe Your Horse: The Ultimate Guide - My New Horse","image":"data:image/gif;base64,R0lGODlhAQABAIAAAP///////yH5BAEKAAEALAAAAAABAAEAAAICTAEAOw==","link":"https://mynewhorse.equusmagazine.com/2023/08/10/how-to-bathe-your-horse-the-ultimate-guide/","block_position":5},{"title":"How to Give a Horse a Bath","image":"data:image/gif;base64,R0lGODlhAQABAIAAAP///////yH5BAEKAAEALAAAAAABAAEAAAICTAEAOw==","link":"https://vetericyn.com/blog/how-to-give-a-horse-a-bath/","block_position":5}],"search_information":{"original_query_yields_zero_results":false,"total_results":80600000},"pagination":{"current":12345678910,"next":"https://www.google.com/search?q=horse+bath&sca_esv=7933640830a9b7d9&ei=uQJUZ-bPL_-LwbkP39CwsAE&start=10&sa=N&sstk=ATObxK5M3z3EeIshFejedz1jiyIckJgWjEGI3fPutu55TvSf-3rsZYwv2k_8xadpgxWWrO8fou77iYdZAmlJ7gUOTNiHZeymNUk1Dg&ved=2ahUKEwimkN20mpWKAxX_RTABHV8oDBYQ8NMDegQICxAW","other_pages":[{"page":2,"link":"https://www.google.com/search?q=horse+bath&sca_esv=7933640830a9b7d9&ei=uQJUZ-bPL_-LwbkP39CwsAE&start=10&sa=N&sstk=ATObxK5M3z3EeIshFejedz1jiyIckJgWjEGI3fPutu55TvSf-3rsZYwv2k_8xadpgxWWrO8fou77iYdZAmlJ7gUOTNiHZeymNUk1Dg&ved=2ahUKEwimkN20mpWKAxX_RTABHV8oDBYQ8tMDegQICxAE"},{"page":3,"link":"https://www.google.com/search?q=horse+bath&sca_esv=7933640830a9b7d9&ei=uQJUZ-bPL_-LwbkP39CwsAE&start=20&sa=N&sstk=ATObxK5M3z3EeIshFejedz1jiyIckJgWjEGI3fPutu55TvSf-3rsZYwv2k_8xadpgxWWrO8fou77iYdZAmlJ7gUOTNiHZeymNUk1Dg&ved=2ahUKEwimkN20mpWKAxX_RTABHV8oDBYQ8tMDegQICxAG"},{"page":4,"link":"https://www.google.com/search?q=horse+bath&sca_esv=7933640830a9b7d9&ei=uQJUZ-bPL_-LwbkP39CwsAE&start=30&sa=N&sstk=ATObxK5M3z3EeIshFejedz1jiyIckJgWjEGI3fPutu55TvSf-3rsZYwv2k_8xadpgxWWrO8fou77iYdZAmlJ7gUOTNiHZeymNUk1Dg&ved=2ahUKEwimkN20mpWKAxX_RTABHV8oDBYQ8tMDegQICxAI"},{"page":5,"link":"https://www.google.com/search?q=horse+bath&sca_esv=7933640830a9b7d9&ei=uQJUZ-bPL_-LwbkP39CwsAE&start=40&sa=N&sstk=ATObxK5M3z3EeIshFejedz1jiyIckJgWjEGI3fPutu55TvSf-3rsZYwv2k_8xadpgxWWrO8fou77iYdZAmlJ7gUOTNiHZeymNUk1Dg&ved=2ahUKEwimkN20mpWKAxX_RTABHV8oDBYQ8tMDegQICxAK"},{"page":6,"link":"https://www.google.com/search?q=horse+bath&sca_esv=7933640830a9b7d9&ei=uQJUZ-bPL_-LwbkP39CwsAE&start=50&sa=N&sstk=ATObxK5M3z3EeIshFejedz1jiyIckJgWjEGI3fPutu55TvSf-3rsZYwv2k_8xadpgxWWrO8fou77iYdZAmlJ7gUOTNiHZeymNUk1Dg&ved=2ahUKEwimkN20mpWKAxX_RTABHV8oDBYQ8tMDegQICxAM"},{"page":7,"link":"https://www.google.com/search?q=horse+bath&sca_esv=7933640830a9b7d9&ei=uQJUZ-bPL_-LwbkP39CwsAE&start=60&sa=N&sstk=ATObxK5M3z3EeIshFejedz1jiyIckJgWjEGI3fPutu55TvSf-3rsZYwv2k_8xadpgxWWrO8fou77iYdZAmlJ7gUOTNiHZeymNUk1Dg&ved=2ahUKEwimkN20mpWKAxX_RTABHV8oDBYQ8tMDegQICxAO"},{"page":8,"link":"https://www.google.com/search?q=horse+bath&sca_esv=7933640830a9b7d9&ei=uQJUZ-bPL_-LwbkP39CwsAE&start=70&sa=N&sstk=ATObxK5M3z3EeIshFejedz1jiyIckJgWjEGI3fPutu55TvSf-3rsZYwv2k_8xadpgxWWrO8fou77iYdZAmlJ7gUOTNiHZeymNUk1Dg&ved=2ahUKEwimkN20mpWKAxX_RTABHV8oDBYQ8tMDegQICxAQ"},{"page":9,"link":"https://www.google.com/search?q=horse+bath&sca_esv=7933640830a9b7d9&ei=uQJUZ-bPL_-LwbkP39CwsAE&start=80&sa=N&sstk=ATObxK5M3z3EeIshFejedz1jiyIckJgWjEGI3fPutu55TvSf-3rsZYwv2k_8xadpgxWWrO8fou77iYdZAmlJ7gUOTNiHZeymNUk1Dg&ved=2ahUKEwimkN20mpWKAxX_RTABHV8oDBYQ8tMDegQICxAS"},{"page":10,"link":"https://www.google.com/search?q=horse+bath&sca_esv=7933640830a9b7d9&ei=uQJUZ-bPL_-LwbkP39CwsAE&start=90&sa=N&sstk=ATObxK5M3z3EeIshFejedz1jiyIckJgWjEGI3fPutu55TvSf-3rsZYwv2k_8xadpgxWWrO8fou77iYdZAmlJ7gUOTNiHZeymNUk1Dg&ved=2ahUKEwimkN20mpWKAxX_RTABHV8oDBYQ8tMDegQICxAU"}],"api_pagination":{"next":"https://api.serpwow.com/live/search?api_key=7B8A01FF4547497FA11B152D4400B2F9&q=horse%20bath&engine=google&google_domain=google.com&id=req0&page=2","other_pages":[{"page":2,"link":"https://api.serpwow.com/live/search?api_key=7B8A01FF4547497FA11B152D4400B2F9&q=horse%20bath&engine=google&google_domain=google.com&id=req0&page=2"},{"page":3,"link":"https://api.serpwow.com/live/search?api_key=7B8A01FF4547497FA11B152D4400B2F9&q=horse%20bath&engine=google&google_domain=google.com&id=req0&page=3"},{"page":4,"link":"https://api.serpwow.com/live/search?api_key=7B8A01FF4547497FA11B152D4400B2F9&q=horse%20bath&engine=google&google_domain=google.com&id=req0&page=4"},{"page":5,"link":"https://api.serpwow.com/live/search?api_key=7B8A01FF4547497FA11B152D4400B2F9&q=horse%20bath&engine=google&google_domain=google.com&id=req0&page=5"},{"page":6,"link":"https://api.serpwow.com/live/search?api_key=7B8A01FF4547497FA11B152D4400B2F9&q=horse%20bath&engine=google&google_domain=google.com&id=req0&page=6"},{"page":7,"link":"https://api.serpwow.com/live/search?api_key=7B8A01FF4547497FA11B152D4400B2F9&q=horse%20bath&engine=google&google_domain=google.com&id=req0&page=7"},{"page":8,"link":"https://api.serpwow.com/live/search?api_key=7B8A01FF4547497FA11B152D4400B2F9&q=horse%20bath&engine=google&google_domain=google.com&id=req0&page=8"},{"page":9,"link":"https://api.serpwow.com/live/search?api_key=7B8A01FF4547497FA11B152D4400B2F9&q=horse%20bath&engine=google&google_domain=google.com&id=req0&page=9"},{"page":10,"link":"https://api.serpwow.com/live/search?api_key=7B8A01FF4547497FA11B152D4400B2F9&q=horse%20bath&engine=google&google_domain=google.com&id=req0&page=10"}]}}}